#Thu Jul 29 01:14:52 UTC 2021
AirTOp.DongleCode=2722006
AirTOp.Java.MaxMemory=8.9 GB
AirTOp.Java.RunTimeVersion=1.8.0_291-b09
AirTOp.Java.Vendor=Oracle Corporation
AirTOp.Java.Version=1.8.0_291
AirTOp.LicenseContract=To70 B.V.-61620-2021/05/20
AirTOp.MapType=map
AirTOp.OS.Arch=amd64
AirTOp.OS.Name=Windows 10
AirTOp.OS.Version=10.0
AirTOp.Options=TrafficGeneration SectorizationCheck ControllerWorkload SQLExport VerticalView TAAMImport SAAMExport TrajTAAMExport RAMSImport GASELImport DWGImport CSVTrafficImport FAAImport EventCharting RoutingLoad SIMMODImport View3D BADAImport ATFM AirportGround TMA EnRoute ATCSectorEntryRuleImport EventStatistics ConflictResolutionRuleBase Wind TouchAndGo NavigationAccuracy TaxiwaySegmentReport ESCAPE ReportSummary AEMExport AirspaceReport AirspaceModeling FlightProfileEstimateV3 FlowCountGraph TMACluster ApproachPathStretching AMAN AirportControllerWorkload Asterix_CAT_Broadcast Asterix_CAT_Import STANLYImport ALL_FT_Import EventPlayback LARAImport ARINC Upgrade_2011 ProjectComparaison KML_Export Simple_Load_Monitoring Upgrade_2012 Runway_Separation_Statistics Parking_Position_Gantt_Chart Taxi_Time_Duration_Estimator Waypoint_InTrail_Separation_Rule Off_Line_Parking_Position_Pre_Allocation Taxiway_Configuration GRIBImport FlightProfileEstimateV4 UserActionHistory Command_Line ServiceRoadClosure ASEImport Radar_Track_Analysis ExportPlaybackOnly OpenStreetMapImport OpenStreetMapLayer FlightRadar24_File_Import Trajectory_Analysis CARATS_Track_Import CNCSV_Track_Import Parallel_Taxiway_Dependency V3 SFExpress_Import
AirTOp.Version=2.4.0B14
DayDate.1=2014-01-01
DayDate.2=2014-01-02
DayDate.3=2014-01-03
Net.Airac=
map.Map.3DObject.selectable=true
map.Map.3DViewPoint.selectable=true
map.Map.ATCSector.painterproperties=false;true;Empty;true
map.Map.ATCSector.selectable=true
map.Map.ATCSectorGrid.selectable=true
map.Map.ATCSectorGridCell.selectable=true
map.Map.ATCSectorHole.selectable=true
map.Map.ATSRoute.selectable=true
map.Map.Aircraft.painterproperties=false;false;true;255 0 255 255;255 255 0 255;0 204 204 255;153 255 0 255;false;false;true;;;Line;Default;;
map.Map.Aircraft.selectable=true
map.Map.Aircraft.visible=true
map.Map.AircraftCountingArea.selectable=true
map.Map.AircraftGhost.selectable=true
map.Map.AircraftLock.selectable=true
map.Map.AircraftSeparation.selectable=true
map.Map.Airport.labeled=true
map.Map.Airport.painterproperties=false;false;true
map.Map.Airport.selectable=true
map.Map.Airport.visible=true
map.Map.Airspace.painterproperties=false;false;Empty;false;true
map.Map.Airspace.selectable=true
map.Map.AirspaceConfiguration.selectable=true
map.Map.AirspaceGroup.selectable=true
map.Map.AirspaceReport.painterproperties=EntryCount;1.0;120.0;10.0;10.0;0;20;EntryCount;Solid;0;10;50;150;250;350;00\:00\:00;00\:05\:00;00\:10\:00;00\:20\:00;00\:40\:00;01\:20\:00;0NM;5NM;10NM;20NM;40NM;80NM;0.0kg;50.0kg;100.0kg;200.0kg;400.0kg;800.0kg;255 255 255 100;0 255 255 100;0 255 0 100;255 255 0 100;255 200 0 100;255 0 0 100;;;255 255 0 255;255 200 0 255;172 17 28 255;100;PlaybackTime;;00\:10\:00;00\:10\:00;false,false,false,false,false,false;false,false,false,false,false;false,true,true,true,true;true;150 150 150 255;150 150 150 128;true;120 165 235 255;120 165 235 128;false,false,false,false,false,false;false,false,false,false,false,false;false,false,false,false,false,false;false,false,false,false,false,false;false,false,false,false,false,false;
map.Map.AirspaceReport.selectable=true
map.Map.ApproachLeg.selectable=true
map.Map.ApproachSequencingEvent.selectable=true
map.Map.ApronControllerArea.selectable=true
map.Map.ApronControllerArea.visible=true
map.Map.AreaOfInterest.selectable=true
map.Map.BaseRunway.selectable=true
map.Map.BaseRunway.visible=true
map.Map.Building.selectable=true
map.Map.Building.visible=true
map.Map.City.selectable=true
map.Map.ClearAirTurbulenceArea.painterproperties=;PlaybackTime;;Normal;09\:00\:00;FEET
map.Map.ClearAirTurbulenceArea.selectable=true
map.Map.Concrete.selectable=true
map.Map.Concrete.visible=true
map.Map.Configuration.selectable=true
map.Map.Conflict.painterproperties=NotSelected;;
map.Map.Conflict.selectable=true
map.Map.Country.selectable=true
map.Map.CurrentFlightPlan.painterproperties=false;true
map.Map.CurrentFlightPlan.selectable=true
map.Map.DeIcingStation.selectable=true
map.Map.DeIcingStationGroup.selectable=true
map.Map.DeadEnd.selectable=true
map.Map.FLAS.selectable=true
map.Map.FLASGrid.selectable=true
map.Map.FLASGridCell.selectable=true
map.Map.FlightPlan.painterproperties=true;true;true
map.Map.FlightPlan.selectable=true
map.Map.FlightPlan.visible=true
map.Map.ForecastTaxiwaySegmentGroupReport.painterproperties=All;false;EntryCount;1.0;120.0;20;false;EntryCount;Solid;false;0;10;50;150;250;350;00\:00\:00;00\:01\:00;00\:03\:00;00\:05\:00;00\:10\:00;00\:15\:00;255 255 255 255;0 255 255 255;0 255 0 255;255 255 0 255;255 200 0 255;255 0 0 255;100;0
map.Map.ForecastTaxiwaySegmentGroupReport.selectable=true
map.Map.ForecastWindArea.painterproperties=true;false;;PlaybackTime;;false;Normal;09\:00\:00
map.Map.ForecastWindArea.selectable=true
map.Map.Grass.selectable=true
map.Map.GrassEdge.selectable=true
map.Map.GrassEdge.visible=true
map.Map.Grid.painterproperties=true
map.Map.Grid.selectable=false
map.Map.Grid.visible=true
map.Map.Holding.selectable=true
map.Map.IcingArea.painterproperties=;PlaybackTime;;Normal;09\:00\:00;FEET
map.Map.IcingArea.selectable=true
map.Map.JetWay.selectable=true
map.Map.LetterOfAgreement.selectable=true
map.Map.LetterOfAgreementEvent.selectable=true
map.Map.LocatedText.selectable=true
map.Map.ManualConflictResolutionCommand.selectable=true
map.Map.NMRegulation.selectable=true
map.Map.NMRegulationEntity.selectable=true
map.Map.ObjectPropertyChangeEvent.selectable=true
map.Map.OpeningScheme.selectable=true
map.Map.ParallelTaxiwayDependency.selectable=true
map.Map.ParallelTaxiwaySection.selectable=true
map.Map.ParkingPosition.selectable=true
map.Map.ParkingPositionGroup.selectable=true
map.Map.Polygon.painterproperties=true
map.Map.Polygon.selectable=true
map.Map.Polygon.visible=true
map.Map.Polyline.selectable=true
map.Map.Polyline.visible=true
map.Map.PullingPosition.selectable=true
map.Map.RBMTrajectory.selectable=true
map.Map.Reference2DLocation.selectable=true
map.Map.ReferenceAirspaceReport.painterproperties=EntryCount;1.0;120.0;10.0;10.0;0;20;EntryCount;Solid;0;10;50;150;250;350;00\:00\:00;00\:05\:00;00\:10\:00;00\:20\:00;00\:40\:00;01\:20\:00;0NM;5NM;10NM;20NM;40NM;80NM;0.0kg;50.0kg;100.0kg;200.0kg;400.0kg;800.0kg;255 255 255 100;0 255 255 100;0 255 0 100;255 255 0 100;255 200 0 100;255 0 0 100;;;255 255 0 255;255 200 0 255;172 17 28 255;100;PlaybackTime;;00\:10\:00;00\:10\:00;false,false,false,false,false,false;false,false,false,false,false;false,true,true,true,true;true;150 150 150 255;150 150 150 128;true;120 165 235 255;120 165 235 128;false,false,false,false,false,false;false,false,false,false,false,false;false,false,false,false,false,false;false,false,false,false,false,false;false,false,false,false,false,false;
map.Map.ReferenceAirspaceReport.selectable=true
map.Map.ReferenceRBMT.selectable=true
map.Map.ReferenceTrajectory.painterproperties=Default;255 0 255 255;255 255 0 255;0 204 204 255;153 255 0 255;;;;;true;;;10
map.Map.ReferenceTrajectory.selectable=true
map.Map.RemoteAircraftState.selectable=true
map.Map.Replay\ Aircraft.labeled=true
map.Map.Replay\ Aircraft.painterproperties=false;false;true;255 0 255 255;255 255 0 255;0 204 204 255;153 255 0 255;false;false;true;;;Line;Default;;
map.Map.Replay\ Aircraft.selectable=true
map.Map.Replay\ Aircraft.visible=true
map.Map.Replay\ AircraftSeparation.labeled=true
map.Map.Replay\ AircraftSeparation.selectable=true
map.Map.Replay\ AircraftSeparation.visible=true
map.Map.Replay\ ForecastParkingPosition.selectable=true
map.Map.Replay\ ForecastTaxiwaySegment.painterproperties=true;false;true;false;false;false;false;false;true;false;true;true;0;192 192 192 255;255 0 0 255;255 200 0 255;;;;;
map.Map.Replay\ ForecastTaxiwaySegment.selectable=true
map.Map.Replay\ ParkingPosition.selectable=true
map.Map.Replay\ Taxiway\ Reports.painterproperties=All;false;EntryCount;1.0;120.0;20;false;EntryCount;Solid;false;0;10;50;150;250;350;00\:00\:00;00\:01\:00;00\:03\:00;00\:05\:00;00\:10\:00;00\:15\:00;255 255 255 255;0 255 255 255;0 255 0 255;255 255 0 255;255 200 0 255;255 0 0 255;100;0
map.Map.Replay\ Taxiway\ Reports.selectable=true
map.Map.Replay\ TaxiwaySegment.painterproperties=true;false;true;false;false;false;false;false;true;false;true;true;0;192 192 192 255;255 0 0 255;255 200 0 255;;;;;
map.Map.Replay\ TaxiwaySegment.selectable=true
map.Map.ResolvedConflictEvent.selectable=true
map.Map.Routing.painterproperties=false;false;true
map.Map.Routing.selectable=true
map.Map.Routing.visible=true
map.Map.RoutingSegment.painterproperties=Distance;5000m;20;false;true;false;false;false;false;178 0 178 255;0 178 0 255;0 178 178 255;178 178 0 255;;ByHeading;0;
map.Map.RoutingSegment.selectable=true
map.Map.Runway.painterproperties=;;
map.Map.Runway.selectable=true
map.Map.RunwayCrossing.selectable=true
map.Map.RunwayDependency.selectable=true
map.Map.RunwayEntry.selectable=true
map.Map.RunwayExit.selectable=true
map.Map.RunwayGroup.selectable=true
map.Map.RunwaySafetyZone.selectable=true
map.Map.SBMTrajectory.selectable=true
map.Map.SID.selectable=true
map.Map.SIDGroup.selectable=true
map.Map.SIDLeg.selectable=true
map.Map.STAR.selectable=true
map.Map.STARGroup.selectable=true
map.Map.STARLeg.selectable=true
map.Map.SectorBlock.selectable=true
map.Map.SectorEntry2DLocation.selectable=true
map.Map.Selected\ objects.selectable=false
map.Map.Selected\ objects.visible=true
map.Map.ServiceRoadClosureRule.selectable=true
map.Map.ServiceRoadLine.selectable=true
map.Map.ServiceRoadPolygon.selectable=true
map.Map.SharedCurrentFlightPlan.selectable=true
map.Map.SpecialArea.painterproperties=true
map.Map.SpecialArea.selectable=true
map.Map.SpecialAreaGrid.selectable=true
map.Map.SpecialAreaGridCell.selectable=true
map.Map.SpecialAreaGroup.selectable=true
map.Map.StandOffPosition.selectable=true
map.Map.StopBar.selectable=true
map.Map.Taxiway.selectable=true
map.Map.TaxiwayConcrete.selectable=true
map.Map.TaxiwayCrossing.selectable=true
map.Map.TaxiwayPoint.painterproperties=false
map.Map.TaxiwayPoint.selectable=true
map.Map.TaxiwaySection.selectable=true
map.Map.TaxiwaySegment.painterproperties=true;false;true;false;false;false;false;false;true;false;true;true;0;192 192 192 255;255 0 0 255;255 200 0 255;;;;;
map.Map.TaxiwaySegment.selectable=true
map.Map.TaxiwaySegment.visible=true
map.Map.TaxiwaySegmentGroup.selectable=true
map.Map.TaxiwaySegmentGroupReport.painterproperties=All;false;EntryCount;1.0;120.0;20;false;EntryCount;Solid;false;0;10;50;150;250;350;00\:00\:00;00\:01\:00;00\:03\:00;00\:05\:00;00\:10\:00;00\:15\:00;255 255 255 255;0 255 255 255;0 255 0 255;255 255 0 255;255 200 0 255;255 0 0 255;100;0
map.Map.TaxiwaySegmentGroupReport.selectable=true
map.Map.TaxiwaySegmentUtilization.painterproperties=false;;;;;;All;;8
map.Map.TaxiwaySegmentUtilization.selectable=true
map.Map.TemperatureArea.selectable=true
map.Map.Trajectory.painterproperties=Default;255 0 255 255;255 255 0 255;0 204 204 255;153 255 0 255;;;;;true;;;10
map.Map.Trajectory.selectable=true
map.Map.UseRoutingCommand.selectable=true
map.Map.VirtualWall.selectable=true
map.Map.Waypoint.painterproperties=false;10;;true
map.Map.Waypoint.selectable=true
map.Map.Waypoint.visible=true
map.Map.WaypointArrivalInformation.selectable=true
map.Map.WaypointGroup.selectable=true
map.Map.WaypointSequence.selectable=true
map.Map.WeatherCBForecast.selectable=true
map.Map.WeatherCBForecastArea.selectable=true
map.Map.WindArea.painterproperties=true;false;;PlaybackTime;;false;Min;09\:00\:00
map.Map.WindArea.selectable=true
map.Map.World.selectable=false
map.Map.World.visible=true
map.Map.originLat=0.0
map.Map.originLon=0.0
map.Map.originX=-1.2682121791517694E7
map.Map.originY=2547711.734104698
map.Map.projection=MercatorProjection
map.Map.scale=0.21407723823883373
map.visiblelayer.order=World;Grid;BaseRunway;Routing;TaxiwaySegment;FlightPlan;Airport;Waypoint;Concrete;ApronControllerArea;Building;GrassEdge;Polygon;Polyline;Selected objects;Replay AircraftSeparation;Aircraft;Replay Aircraft;
projectrootdirectory=./HKG
report.ParkingPositionAllocationSchemaEntry=ActualTime;;;;;;;;;false;;;;;;;true;;;false;;ById;true;ID;;;00\:00\:10;;ById;false;false;;;;;false;0 0 0 60;255 0 0 30;255 255 0 20;0 255 0 20
simulator.state=3 00\:00\:00;1 00\:00\:00;3 00\:00\:00;;None;00\:00\:01;true;00\:00\:01;;true;;;;;
table.Table.3DCameraMotionControl.selectable=false
table.Table.3DObject.selectable=false
table.Table.3DViewPoint.selectable=false
table.Table.AMAN.selectable=false
table.Table.AMANSequenceManager.selectable=false
table.Table.AMANSequenceManagerTask.selectable=false
table.Table.AMANSequenceReport.selectable=false
table.Table.ATCSector.selectable=false
table.Table.ATCSectorCondition.selectable=false
table.Table.ATCSectorEntryRule.selectable=false
table.Table.ATCSectorGrid.selectable=false
table.Table.ATCSectorGridCell.selectable=false
table.Table.ATCSectorHole.selectable=false
table.Table.ATCSectorThematicStyle.selectable=false
table.Table.ATSRoute.selectable=false
table.Table.ATSRouteCondition.selectable=false
table.Table.ATSRouteThematicStyle.selectable=false
table.Table.AccelerationRandom.selectable=false
table.Table.AdapterSetting.selectable=false
table.Table.Aircraft.selectable=false
table.Table.Aircraft3DIcon.selectable=false
table.Table.AircraftBasedArrAfterArrDependency.selectable=false
table.Table.AircraftBasedDepAfterArrDependency.selectable=false
table.Table.AircraftBasedDepAfterDepDependency.selectable=false
table.Table.AircraftBasedDepBeforeArrDependency.selectable=false
table.Table.AircraftCommunicationEquipment.selectable=false
table.Table.AircraftComparator.selectable=false
table.Table.AircraftCondition.selectable=false
table.Table.AircraftConditionBasedDistanceSeparation.selectable=false
table.Table.AircraftConditionBasedTimeSeparation.selectable=false
table.Table.AircraftCountingArea.selectable=false
table.Table.AircraftCountingAreaCondition.selectable=false
table.Table.AircraftCountingAreaEntryExitInfo.selectable=false
table.Table.AircraftCountingAreaEntryExitInfoCondition.selectable=false
table.Table.AircraftCountingAreaEntryExitInfoThematicStyle.selectable=false
table.Table.AircraftCountingAreaThematicStyle.selectable=false
table.Table.AircraftGhost.selectable=false
table.Table.AircraftGroundSpeedType.selectable=false
table.Table.AircraftLock.selectable=false
table.Table.AircraftLockCondition.selectable=false
table.Table.AircraftLockThematicStyle.selectable=false
table.Table.AircraftMapLabel.selectable=false
table.Table.AircraftNavigationEquipment.selectable=false
table.Table.AircraftOperatorCentre.selectable=false
table.Table.AircraftPairCondition.selectable=false
table.Table.AircraftRule.selectable=false
table.Table.AircraftSeparation.selectable=false
table.Table.AircraftSeparationCondition.selectable=false
table.Table.AircraftSeparationThematicStyle.selectable=false
table.Table.AircraftSizeType.selectable=false
table.Table.AircraftThematicStyle.selectable=false
table.Table.AircraftType.selectable=false
table.Table.AircraftTypeApproachProfile.selectable=false
table.Table.AircraftTypeCondition.selectable=false
table.Table.AircraftTypeProfile.selectable=false
table.Table.AircraftTypeSIDProfile.selectable=false
table.Table.AircraftTypeThematicStyle.selectable=false
table.Table.Airline.selectable=false
table.Table.Airport.selectable=false
table.Table.AirportAuthorities.selectable=false
table.Table.AirportCondition.selectable=false
table.Table.AirportController.selectable=false
table.Table.AirportControllerRequest.selectable=false
table.Table.AirportControllerRequestCondition.selectable=false
table.Table.AirportControllerRequestThematicStyle.selectable=false
table.Table.AirportControllerTask.selectable=false
table.Table.AirportGroup.selectable=false
table.Table.AirportPair.selectable=false
table.Table.AirportRoutingFix.selectable=false
table.Table.AirportRunwayGroup.selectable=false
table.Table.AirportStatus.selectable=false
table.Table.AirportStatusCondition.selectable=false
table.Table.AirportStatusGroup.selectable=false
table.Table.AirportStatusGroupCondition.selectable=false
table.Table.AirportStatusGroupThematicStyle.selectable=false
table.Table.AirportStatusPlot.selectable=false
table.Table.AirportStatusPlotCondition.selectable=false
table.Table.AirportStatusPlotGroup.selectable=false
table.Table.AirportStatusPlotGroupCondition.selectable=false
table.Table.AirportStatusPlotGroupThematicStyle.selectable=false
table.Table.AirportStatusPlotThematicStyle.selectable=false
table.Table.AirportStatusThematicStyle.selectable=false
table.Table.AirportThematicStyle.selectable=false
table.Table.Airspace.selectable=false
table.Table.AirspaceCondition.selectable=false
table.Table.AirspaceConfiguration.selectable=false
table.Table.AirspaceConfigurationGroup.selectable=false
table.Table.AirspaceConfigurationGroupTransitionMatrix.selectable=false
table.Table.AirspaceControlerTrafficFlows.selectable=false
table.Table.AirspaceControlerTrafficFlowsCondition.selectable=false
table.Table.AirspaceControlerTrafficFlowsThematicStyle.selectable=false
table.Table.AirspaceGroup.selectable=false
table.Table.AirspaceGroupCondition.selectable=false
table.Table.AirspaceGroupFlow.selectable=false
table.Table.AirspaceGroupFlowCondition.selectable=false
table.Table.AirspaceGroupFlowThematicStyle.selectable=false
table.Table.AirspaceGroupThematicStyle.selectable=false
table.Table.AirspaceReport.selectable=false
table.Table.AirspaceReportCondition.selectable=false
table.Table.AirspaceReportThematicStyle.selectable=false
table.Table.AirspaceThematicStyle.selectable=false
table.Table.AirspaceType.selectable=false
table.Table.AirspaceTypeCondition.selectable=false
table.Table.AirspaceTypeThematicStyle.selectable=false
table.Table.AltitudeListContainer.selectable=false
table.Table.AltitudeRandom.selectable=false
table.Table.ApproachLeg.selectable=false
table.Table.ApproachLegCondition.selectable=false
table.Table.ApproachLegLocalSeparationRule.selectable=false
table.Table.ApproachLegThematicStyle.selectable=false
table.Table.ApproachSequencingDelay.selectable=false
table.Table.ApproachSequencingEvent.selectable=false
table.Table.ApronControllerArea.selectable=false
table.Table.ApronControllerAreaCondition.selectable=false
table.Table.ApronControllerAreaThematicStyle.selectable=false
table.Table.AreaControlCentre.selectable=false
table.Table.AreaOfInterest.selectable=false
table.Table.ArrAfterArrDependency.selectable=false
table.Table.ArrivalGap.selectable=false
table.Table.ArrivalGapCondition.selectable=false
table.Table.ArrivalGapThematicStyle.selectable=false
table.Table.AssignArrivalGapCommand.selectable=false
table.Table.AssignArrivalGapRule.selectable=false
table.Table.AvoidingAirspaceSolution.selectable=false
table.Table.BadWeatherRadarImportParameters.selectable=false
table.Table.BaseRunway.selectable=false
table.Table.BaseRunwayCondition.selectable=false
table.Table.BaseRunwayThematicStyle.selectable=false
table.Table.BoardingGroupsRule.selectable=false
table.Table.Building.selectable=false
table.Table.BuildingCondition.selectable=false
table.Table.BuildingThematicStyle.selectable=false
table.Table.CTOT.selectable=false
table.Table.CTOTCondition.selectable=false
table.Table.CTOTThematicStyle.selectable=false
table.Table.Capacity.selectable=false
table.Table.ChangeWatchStatistics.selectable=false
table.Table.City.selectable=false
table.Table.CityPairReport.selectable=false
table.Table.ClearAirTurbulenceArea.selectable=false
table.Table.ClusterFlow.selectable=false
table.Table.ClusterLog.selectable=false
table.Table.CombinedCluster.selectable=false
table.Table.Concrete.selectable=false
table.Table.Concrete.visible=true
table.Table.ConcreteCondition.selectable=false
table.Table.ConcreteThematicStyle.selectable=false
table.Table.ConditionalRunwayArrivalAction.selectable=false
table.Table.Configuration.selectable=false
table.Table.ConfigurationCondition.selectable=false
table.Table.ConfigurationThematicStyle.selectable=false
table.Table.Conflict.selectable=false
table.Table.ConflictCondition.selectable=false
table.Table.ConflictResolutionRuleBase.selectable=false
table.Table.ConflictThematicStyle.selectable=false
table.Table.ConsiderDeIcingStationCommand.selectable=false
table.Table.ConsiderParkingPositionCommand.selectable=false
table.Table.ConsiderRunwayEntryCommand.selectable=false
table.Table.ConsiderTaxiwaySegmentCommand.selectable=false
table.Table.ConsumptionRandom.selectable=false
table.Table.ControllerWorkloadSchema.selectable=false
table.Table.Country.selectable=false
table.Table.CountryCondition.selectable=false
table.Table.CountryThematicStyle.selectable=false
table.Table.CurrentFlightPlan.selectable=false
table.Table.CurrentStaggeredRunwaySeparation.selectable=false
table.Table.DCBMeasure.selectable=false
table.Table.DCBMeasureCondition.selectable=false
table.Table.DCBMeasureThematicStyle.selectable=false
table.Table.DCBProblem.selectable=false
table.Table.DCBProblemCondition.selectable=false
table.Table.DCBProblemThematicStyle.selectable=false
table.Table.DCBSolution.selectable=false
table.Table.DCBSolutionApprovalRequest.selectable=false
table.Table.DCBSolutionNegotiation.selectable=false
table.Table.DataSetSync.selectable=false
table.Table.DataSetSyncCondition.selectable=false
table.Table.DataSetSyncThematicStyle.selectable=false
table.Table.DeIcingDurationSet.selectable=false
table.Table.DeIcingFleet.selectable=false
table.Table.DeIcingStation.selectable=false
table.Table.DeIcingStationCondition.selectable=false
table.Table.DeIcingStationGroup.selectable=false
table.Table.DeIcingStationGroupCondition.selectable=false
table.Table.DeIcingStationGroupThematicStyle.selectable=false
table.Table.DeIcingStationSelectionRule.selectable=false
table.Table.DeIcingStationThematicStyle.selectable=false
table.Table.DeadEnd.selectable=false
table.Table.DecisionProcessDefinition.selectable=false
table.Table.DecisionProcessDefinitionCondition.selectable=false
table.Table.DecisionProcessDefinitionThematicStyle.selectable=false
table.Table.DecisionProcessLog.selectable=false
table.Table.DelayAbsorptionStrategy.selectable=false
table.Table.DelayMonitoring.selectable=false
table.Table.DepAfterArrDependency.selectable=false
table.Table.DepAfterDepDependency.selectable=false
table.Table.DepBeforeArrDependency.selectable=false
table.Table.DistanceRandom.selectable=false
table.Table.ETAMinMaxRequest.selectable=false
table.Table.ETAMinMaxRequestCondition.selectable=false
table.Table.ETAMinMaxRequestThematicStyle.selectable=false
table.Table.EngineBasedDistanceMatrix.selectable=false
table.Table.EnterHoldingAndUseRoutingRule.selectable=false
table.Table.EnterHoldingCommand.selectable=false
table.Table.EntryCountGraph.selectable=false
table.Table.EstimatedTimesValidation.selectable=false
table.Table.EstimationsEvent.selectable=false
table.Table.ExecutedDCBMeasure.selectable=false
table.Table.ExecutedDCBMeasureCondition.selectable=false
table.Table.ExecutedDCBMeasureThematicStyle.selectable=false
table.Table.FLAS.selectable=false
table.Table.FLASGrid.selectable=false
table.Table.FLASGridCell.selectable=false
table.Table.FilteredObjectPropertyList.selectable=false
table.Table.FlightDepartureTimeVariationRule.selectable=false
table.Table.FlightDepartureTimeVariationRuleCondition.selectable=false
table.Table.FlightDepartureTimeVariationRuleThematicStyle.selectable=false
table.Table.FlightPlan.selectable=false
table.Table.FlightPlanCancellationRule.selectable=false
table.Table.FlightPlanCondition.selectable=false
table.Table.FlightPlanConditionBasedSeparation.selectable=false
table.Table.FlightPlanConditionBasedTimeSeparation.selectable=false
table.Table.FlightPlanSetDirectRule.selectable=false
table.Table.FlightPlanSetDirectRuleCondition.selectable=false
table.Table.FlightPlanSetDirectRuleThematicStyle.selectable=false
table.Table.FlightPlanThematicStyle.selectable=false
table.Table.FlightProfileWrapper.selectable=false
table.Table.FlightProfileWrapperCondition.selectable=false
table.Table.FlightProfileWrapperThematicStyle.selectable=false
table.Table.FlightProgressMessageEvent.selectable=false
table.Table.FlightReport.selectable=false
table.Table.FlightReportCondition.selectable=false
table.Table.FlightReportThematicStyle.selectable=false
table.Table.FlightStatus.selectable=false
table.Table.FlightStatusCondition.selectable=false
table.Table.FlightStatusThematicStyle.selectable=false
table.Table.Flow.selectable=false
table.Table.FlowElement.selectable=false
table.Table.FlyDirectToSectorExitCommand.selectable=false
table.Table.FlyDirectToWaypointCommand.selectable=false
table.Table.ForecastAirportAirsideAnalysis.selectable=false
table.Table.ForecastAirportReport.selectable=false
table.Table.ForecastAirportReportCondition.selectable=false
table.Table.ForecastAirportReportThematicStyle.selectable=false
table.Table.ForecastAnalysisSetupEntry.selectable=false
table.Table.ForecastConfigurationSetupList.selectable=false
table.Table.ForecastConfigurationsListCustomizerSetup.selectable=false
table.Table.ForecastFlightList.selectable=false
table.Table.ForecastFlightListCondition.selectable=false
table.Table.ForecastFlightListThematicStyle.selectable=false
table.Table.ForecastParkingPositionTrajectory.selectable=false
table.Table.ForecastParkingPositionTrajectoryCondition.selectable=false
table.Table.ForecastParkingPositionTrajectoryThematicStyle.selectable=false
table.Table.ForecastTaxiwaySegmentGroupReport.selectable=false
table.Table.ForecastTaxiwaySegmentTrajectory.selectable=false
table.Table.ForecastTaxiwaySegmentTrajectoryCondition.selectable=false
table.Table.ForecastTaxiwaySegmentTrajectoryThematicStyle.selectable=false
table.Table.ForecastWindArea.selectable=false
table.Table.ForecastWorkloadAirspaceTurbulenceSetup.selectable=false
table.Table.Grass.selectable=false
table.Table.GrassCondition.selectable=false
table.Table.GrassEdge.selectable=false
table.Table.GrassEdgeCondition.selectable=false
table.Table.GrassEdgeThematicStyle.selectable=false
table.Table.GrassThematicStyle.selectable=false
table.Table.GroundStopRule.selectable=false
table.Table.GroundStopRuleCondition.selectable=false
table.Table.GroundStopRuleThematicStyle.selectable=false
table.Table.HILConfiguration.selectable=false
table.Table.HILConfigurationCondition.selectable=false
table.Table.HILConfigurationThematicStyle.selectable=false
table.Table.HILType.selectable=false
table.Table.HILTypeCondition.selectable=false
table.Table.HILTypeThematicStyle.selectable=false
table.Table.HeadingGroup.selectable=false
table.Table.Holding.selectable=false
table.Table.HoldingCondition.selectable=false
table.Table.HoldingGroup.selectable=false
table.Table.HoldingSequenceReport.selectable=false
table.Table.HoldingThematicStyle.selectable=false
table.Table.IcingArea.selectable=false
table.Table.IndividualCluster.selectable=false
table.Table.IntegerRandom.selectable=false
table.Table.IntegerRandomCondition.selectable=false
table.Table.IntegerRandomThematicStyle.selectable=false
table.Table.JetWay.selectable=false
table.Table.JetWayCondition.selectable=false
table.Table.JetWayThematicStyle.selectable=false
table.Table.JetWayTrajectory.selectable=false
table.Table.JetWayTrajectoryCondition.selectable=false
table.Table.JetWayTrajectoryThematicStyle.selectable=false
table.Table.KPIDeviation.selectable=false
table.Table.LdapAuthenticationServerSettings.selectable=false
table.Table.LengthGroup.selectable=false
table.Table.LetterOfAgreement.selectable=false
table.Table.LetterOfAgreementCondition.selectable=false
table.Table.LetterOfAgreementEvent.selectable=false
table.Table.LetterOfAgreementEventCondition.selectable=false
table.Table.LetterOfAgreementEventThematicStyle.selectable=false
table.Table.LetterOfAgreementGroup.selectable=false
table.Table.LetterOfAgreementGroupCondition.selectable=false
table.Table.LetterOfAgreementGroupThematicStyle.selectable=false
table.Table.LetterOfAgreementThematicStyle.selectable=false
table.Table.LoadLevelDistribution.selectable=false
table.Table.LoadMonitor.selectable=false
table.Table.LocatedText.selectable=false
table.Table.LocatedTextCondition.selectable=false
table.Table.LocatedTextThematicStyle.selectable=false
table.Table.ManualCTAApprovalRequest.selectable=false
table.Table.ManualCTAApprovalRequestCondition.selectable=false
table.Table.ManualCTAApprovalRequestThematicStyle.selectable=false
table.Table.ManualConflictResolutionCommand.selectable=false
table.Table.MapData.selectable=false
table.Table.MapLayerCustomization.selectable=false
table.Table.MapStyle.selectable=false
table.Table.Measurement.selectable=false
table.Table.MeasurementCondition.selectable=false
table.Table.MeasurementThematicStyle.selectable=false
table.Table.NMAirspaceOpeningMessage.selectable=false
table.Table.NMConnectionSetting.selectable=false
table.Table.NMRegulation.selectable=false
table.Table.NMRegulationCondition.selectable=false
table.Table.NMRegulationEntity.selectable=false
table.Table.NMRegulationEntityCondition.selectable=false
table.Table.NMRegulationEntityThematicStyle.selectable=false
table.Table.NMRegulationThematicStyle.selectable=false
table.Table.NMRetrieveEuropeanAirspaceUsePlanRequest.selectable=false
table.Table.NMRetrieveEuropeanAirspaceUsePlanRequestCondition.selectable=false
table.Table.NMRetrieveEuropeanAirspaceUsePlanRequestThematicStyle.selectable=false
table.Table.NMTrafficVolumeFlight.selectable=false
table.Table.NMTrafficVolumeFlightCondition.selectable=false
table.Table.NMTrafficVolumeFlightThematicStyle.selectable=false
table.Table.NMTrafficVolumeLocation.selectable=false
table.Table.NetFlightIndicator.selectable=false
table.Table.NetQueue.selectable=false
table.Table.NetworkManager.selectable=false
table.Table.NetworkManagerTask.selectable=false
table.Table.Notification.selectable=false
table.Table.NotificationType.selectable=false
table.Table.ObjectChangeRequest.selectable=false
table.Table.ObjectDurationMonitor.selectable=false
table.Table.ObjectDurationMonitorCondition.selectable=false
table.Table.ObjectDurationMonitorThematicStyle.selectable=false
table.Table.ObjectProperty.selectable=false
table.Table.ObjectPropertyChangeEvent.selectable=false
table.Table.ObjectPropertyChangeEventCondition.selectable=false
table.Table.ObjectPropertyChangeEventThematicStyle.selectable=false
table.Table.ObjectPropertyChangeWatch.selectable=false
table.Table.ObjectPropertyPlot.selectable=false
table.Table.ObjectPropertyWatch.selectable=false
table.Table.ObjectPropertyWatchEvent.selectable=false
table.Table.ObjectPropertyWatchEventCondition.selectable=false
table.Table.ObjectPropertyWatchEventThematicStyle.selectable=false
table.Table.OccupancyCountGraph.selectable=false
table.Table.OdimMetadata.selectable=false
table.Table.OffLineParkingPositionAllocationSchema.selectable=false
table.Table.OpeningScheme.selectable=false
table.Table.OuterMarkerDistanceArrivalSeparationEvent.selectable=false
table.Table.ParallelTaxiwayDependency.selectable=false
table.Table.ParallelTaxiwayDependencyCondition.selectable=false
table.Table.ParallelTaxiwayDependencyThematicStyle.selectable=false
table.Table.ParallelTaxiwaySection.selectable=false
table.Table.ParallelTaxiwaySectionCondition.selectable=false
table.Table.ParallelTaxiwaySectionThematicStyle.selectable=false
table.Table.ParkingPosition.selectable=false
table.Table.ParkingPositionAllocationSchema.selectable=false
table.Table.ParkingPositionCondition.selectable=false
table.Table.ParkingPositionGroup.selectable=false
table.Table.ParkingPositionGroupCondition.selectable=false
table.Table.ParkingPositionGroupThematicStyle.selectable=false
table.Table.ParkingPositionOpenCloseRule.selectable=false
table.Table.ParkingPositionSelectionRule.selectable=false
table.Table.ParkingPositionSelectionRuleCondition.selectable=false
table.Table.ParkingPositionSelectionRuleThematicStyle.selectable=false
table.Table.ParkingPositionThematicStyle.selectable=false
table.Table.ParkingPositionTrajectory.selectable=false
table.Table.ParkingPositionTrajectoryCondition.selectable=false
table.Table.ParkingPositionTrajectoryThematicStyle.selectable=false
table.Table.PlanningController.selectable=false
table.Table.PlanningControllerTask.selectable=false
table.Table.Polygon.selectable=false
table.Table.PolygonCondition.selectable=false
table.Table.PolygonThematicStyle.selectable=false
table.Table.Polyline.selectable=false
table.Table.PolylineCondition.selectable=false
table.Table.PolylineThematicStyle.selectable=false
table.Table.PreAllocateFlightPlanParkingPositionResult.selectable=false
table.Table.PreAllocateFlightPlanParkingPositionResultCondition.selectable=false
table.Table.PreAllocateFlightPlanParkingPositionResultThematicStyle.selectable=false
table.Table.ProblemFilter.selectable=false
table.Table.PullingPosition.selectable=false
table.Table.PullingPositionCondition.selectable=false
table.Table.PullingPositionThematicStyle.selectable=false
table.Table.PushBackClearanceCondition.selectable=false
table.Table.PushBackTrafficCheckSetUp.selectable=false
table.Table.QueryFilter.selectable=false
table.Table.QueueDelaySumDistribution.selectable=false
table.Table.QueueDelayedFlightCountDistribution.selectable=false
table.Table.RBMTrajectory.selectable=false
table.Table.RBMTrajectoryCondition.selectable=false
table.Table.RBMTrajectoryThematicStyle.selectable=false
table.Table.RadarController.selectable=false
table.Table.RadarControllerTask.selectable=false
table.Table.ReRoutingRule.selectable=false
table.Table.Reference2DLocation.selectable=false
table.Table.ReferenceAirspaceReport.selectable=false
table.Table.ReferenceAirspaceReportCondition.selectable=false
table.Table.ReferenceAirspaceReportThematicStyle.selectable=false
table.Table.ReferenceRBMT.selectable=false
table.Table.ReferenceRBMTCondition.selectable=false
table.Table.ReferenceRBMTThematicStyle.selectable=false
table.Table.ReferenceRunwayArrivalSeparationEvent.selectable=false
table.Table.ReferenceRunwayDepartureSeparationEvent.selectable=false
table.Table.ReferenceRunwayDepartureSeparationEventCondition.selectable=false
table.Table.ReferenceRunwayDepartureSeparationEventThematicStyle.selectable=false
table.Table.ReferenceTrajectory.selectable=false
table.Table.ReferenceTrajectoryCondition.selectable=false
table.Table.ReferenceTrajectoryProfile.selectable=false
table.Table.ReferenceTrajectoryProfileCondition.selectable=false
table.Table.ReferenceTrajectoryProfileThematicStyle.selectable=false
table.Table.ReferenceTrajectoryThematicStyle.selectable=false
table.Table.RegularExpression.selectable=false
table.Table.RemoteAircraftState.selectable=false
table.Table.RemoteAircraftStateCondition.selectable=false
table.Table.RemoteAircraftStateThematicStyle.selectable=false
table.Table.RemoveArrivalGapCommand.selectable=false
table.Table.ResolvedConflictEvent.selectable=false
table.Table.ResolvedConflictEventCondition.selectable=false
table.Table.ResolvedConflictEventThematicStyle.selectable=false
table.Table.ResolvedPotentialConflictStatistics.selectable=false
table.Table.RestrictAircraftAltitudeCommand.selectable=false
table.Table.RestrictAircraftSpeedCommand.selectable=false
table.Table.Routing.selectable=false
table.Table.RoutingCondition.selectable=false
table.Table.RoutingNode.selectable=false
table.Table.RoutingNodeCondition.selectable=false
table.Table.RoutingNodeThematicStyle.selectable=false
table.Table.RoutingSegment.selectable=false
table.Table.RoutingSegmentCondition.selectable=false
table.Table.RoutingSegmentThematicStyle.selectable=false
table.Table.RoutingThematicStyle.selectable=false
table.Table.RuleEvent.selectable=false
table.Table.RuleEventCondition.selectable=false
table.Table.RuleEventThematicStyle.selectable=false
table.Table.Runway.selectable=false
table.Table.RunwayArrivalSeparationEvent.selectable=false
table.Table.RunwayArrivalSeparationEventCondition.selectable=false
table.Table.RunwayArrivalSeparationEventThematicStyle.selectable=false
table.Table.RunwayArrivalSeparationRule.selectable=false
table.Table.RunwayArrivalSequence.selectable=false
table.Table.RunwayArrivalSequenceReport.selectable=false
table.Table.RunwayCondition.selectable=false
table.Table.RunwayCrossing.selectable=false
table.Table.RunwayCrossingCondition.selectable=false
table.Table.RunwayCrossingThematicStyle.selectable=false
table.Table.RunwayDepartureSeparationEvent.selectable=false
table.Table.RunwayDepartureSeparationEventCondition.selectable=false
table.Table.RunwayDepartureSeparationEventThematicStyle.selectable=false
table.Table.RunwayDependency.selectable=false
table.Table.RunwayEntry.selectable=false
table.Table.RunwayEntryCondition.selectable=false
table.Table.RunwayEntryLinedUpDurationRule.selectable=false
table.Table.RunwayEntrySelectionRule.selectable=false
table.Table.RunwayEntryThematicStyle.selectable=false
table.Table.RunwayExit.selectable=false
table.Table.RunwayExitCondition.selectable=false
table.Table.RunwayExitSelectionRule.selectable=false
table.Table.RunwayExitThematicStyle.selectable=false
table.Table.RunwayFlowConstraint.selectable=false
table.Table.RunwayGroup.selectable=false
table.Table.RunwayGroupCondition.selectable=false
table.Table.RunwayGroupThematicStyle.selectable=false
table.Table.RunwayMissApproachRule.selectable=false
table.Table.RunwaySIDPairProfile.selectable=false
table.Table.RunwaySafetyZone.selectable=false
table.Table.RunwaySafetyZoneCondition.selectable=false
table.Table.RunwaySafetyZoneThematicStyle.selectable=false
table.Table.RunwaySchedule.selectable=false
table.Table.RunwaySeparationStatistics.selectable=false
table.Table.RunwayThematicStyle.selectable=false
table.Table.RunwayThroughputStatistics.selectable=false
table.Table.SBMTrajectory.selectable=false
table.Table.SBMTrajectoryCondition.selectable=false
table.Table.SBMTrajectoryThematicStyle.selectable=false
table.Table.SID.selectable=false
table.Table.SIDCondition.selectable=false
table.Table.SIDGroup.selectable=false
table.Table.SIDGroupCondition.selectable=false
table.Table.SIDGroupThematicStyle.selectable=false
table.Table.SIDLeg.selectable=false
table.Table.SIDThematicStyle.selectable=false
table.Table.STAR.selectable=false
table.Table.STARGroup.selectable=false
table.Table.STARGroupCondition.selectable=false
table.Table.STARGroupThematicStyle.selectable=false
table.Table.STARLeg.selectable=false
table.Table.SectorBlock.selectable=false
table.Table.SectorBlockCondition.selectable=false
table.Table.SectorBlockThematicStyle.selectable=false
table.Table.SectorEntry2DLocation.selectable=false
table.Table.SectorSkipProcedure.selectable=false
table.Table.SectorSkipProcedureCondition.selectable=false
table.Table.SectorSkipProcedureThematicStyle.selectable=false
table.Table.SectorizationTimingProblem.selectable=false
table.Table.ServiceRoadClosureRule.selectable=false
table.Table.ServiceRoadClosureRuleClosingValues.selectable=false
table.Table.ServiceRoadClosureRuleCondition.selectable=false
table.Table.ServiceRoadClosureRuleThematicStyle.selectable=false
table.Table.ServiceRoadLine.selectable=false
table.Table.ServiceRoadPolygon.selectable=false
table.Table.SetArrivalGapGroupCountCommand.selectable=false
table.Table.SetRunwayArrivalSeparationCommand.selectable=false
table.Table.SetStaggeredRunwaySeparationCommand.selectable=false
table.Table.SharedCurrentFlightPlan.selectable=false
table.Table.SharedCurrentFlightPlanCondition.selectable=false
table.Table.SharedCurrentFlightPlanThematicStyle.selectable=false
table.Table.SignedTimeDurationRandom.selectable=false
table.Table.SimpleLoadMonitoring.selectable=false
table.Table.SimpleLoadMonitoringCondition.selectable=false
table.Table.SimpleLoadMonitoringThematicStyle.selectable=false
table.Table.SimulationBreakpoint.selectable=false
table.Table.SpecialArea.selectable=false
table.Table.SpecialAreaCondition.selectable=false
table.Table.SpecialAreaGrid.selectable=false
table.Table.SpecialAreaGridCell.selectable=false
table.Table.SpecialAreaGroup.selectable=false
table.Table.SpecialAreaGroupCondition.selectable=false
table.Table.SpecialAreaGroupThematicStyle.selectable=false
table.Table.SpecialAreaThematicStyle.selectable=false
table.Table.SpeedRandom.selectable=false
table.Table.StaggeredRunwaySeparation.selectable=false
table.Table.StandOffPosition.selectable=false
table.Table.StandOffPositionCondition.selectable=false
table.Table.StandOffPositionThematicStyle.selectable=false
table.Table.StartEndEventMonitor.selectable=false
table.Table.StartUpClearanceCondition.selectable=false
table.Table.StopAndWaitRule.selectable=false
table.Table.StopBar.selectable=false
table.Table.StopBarCondition.selectable=false
table.Table.StopBarThematicStyle.selectable=false
table.Table.Style.selectable=false
table.Table.TOBT.selectable=false
table.Table.TOBTCondition.selectable=false
table.Table.TOBTThematicStyle.selectable=false
table.Table.TTOT.selectable=false
table.Table.TTOTCondition.selectable=false
table.Table.TTOTThematicStyle.selectable=false
table.Table.TaxiTimeDurationEstimator.selectable=false
table.Table.TaxiingClearanceCondition.selectable=false
table.Table.Taxiway.selectable=false
table.Table.TaxiwayConcrete.selectable=false
table.Table.TaxiwayConcreteCondition.selectable=false
table.Table.TaxiwayConcreteThematicStyle.selectable=false
table.Table.TaxiwayCondition.selectable=false
table.Table.TaxiwayConfiguration.selectable=false
table.Table.TaxiwayCrossing.selectable=false
table.Table.TaxiwayCrossingCondition.selectable=false
table.Table.TaxiwayCrossingThematicStyle.selectable=false
table.Table.TaxiwayPoint.selectable=false
table.Table.TaxiwayPointCondition.selectable=false
table.Table.TaxiwayPointDependency.selectable=false
table.Table.TaxiwayPointThematicStyle.selectable=false
table.Table.TaxiwaySection.selectable=false
table.Table.TaxiwaySectionCondition.selectable=false
table.Table.TaxiwaySectionThematicStyle.selectable=false
table.Table.TaxiwaySegment.selectable=false
table.Table.TaxiwaySegmentAircraftUsage.selectable=false
table.Table.TaxiwaySegmentCondition.selectable=false
table.Table.TaxiwaySegmentGroup.selectable=false
table.Table.TaxiwaySegmentGroupCondition.selectable=false
table.Table.TaxiwaySegmentGroupReport.selectable=false
table.Table.TaxiwaySegmentGroupReportPainterSetup.selectable=false
table.Table.TaxiwaySegmentGroupThematicStyle.selectable=false
table.Table.TaxiwaySegmentThematicStyle.selectable=false
table.Table.TaxiwaySegmentTrajectory.selectable=false
table.Table.TaxiwaySegmentTrajectoryCondition.selectable=false
table.Table.TaxiwaySegmentTrajectoryThematicStyle.selectable=false
table.Table.TaxiwaySegmentUtilization.selectable=false
table.Table.TaxiwaySegmentUtilizationCondition.selectable=false
table.Table.TaxiwaySegmentUtilizationThematicStyle.selectable=false
table.Table.TaxiwayThematicStyle.selectable=false
table.Table.TemperatureArea.selectable=false
table.Table.Theme.selectable=false
table.Table.ThresholdColorMap.selectable=false
table.Table.TimeConstraint.selectable=false
table.Table.TimeConstraintCondition.selectable=false
table.Table.TimeConstraintThematicStyle.selectable=false
table.Table.TimeDurationRandom.selectable=false
table.Table.TimeRandom.selectable=false
table.Table.TimeStepDistributionQuery.selectable=false
table.Table.TimeStepDistributionQueryListSummary.selectable=false
table.Table.TimeStepDistributionQueryPlot.selectable=false
table.Table.TimeStepDistributionQueryPlotGroup.selectable=false
table.Table.TimeStepDistributionQuerySummary.selectable=false
table.Table.TrafficIncreaseOrDecreaseSettings.selectable=false
table.Table.TrafficVolume.selectable=false
table.Table.TrafficVolumeCondition.selectable=false
table.Table.TrafficVolumeThematicStyle.selectable=false
table.Table.Trajectory.selectable=false
table.Table.TrajectoryCondition.selectable=false
table.Table.TrajectoryPredictor.selectable=false
table.Table.TrajectoryPredictorCondition.selectable=false
table.Table.TrajectoryPredictorThematicStyle.selectable=false
table.Table.TrajectorySectorEntryExit.selectable=false
table.Table.TrajectorySectorEntryExitCondition.selectable=false
table.Table.TrajectorySectorEntryExitThematicStyle.selectable=false
table.Table.TrajectorySectorSnapshot.selectable=false
table.Table.TrajectorySectorSnapshotCondition.selectable=false
table.Table.TrajectorySectorSnapshotThematicStyle.selectable=false
table.Table.TrajectoryThematicStyle.selectable=false
table.Table.TurnAroundDurationRule.selectable=false
table.Table.TwoLaneCrossingLock.selectable=false
table.Table.UplinkFMSCTAApprovalRequest.selectable=false
table.Table.UplinkFMSCTAApprovalRequestCondition.selectable=false
table.Table.UplinkFMSCTAApprovalRequestThematicStyle.selectable=false
table.Table.UseRoutingCommand.selectable=false
table.Table.UseRoutingRule.selectable=false
table.Table.User.selectable=false
table.Table.UserActionHistory.selectable=false
table.Table.UserEntrySetup.selectable=false
table.Table.UserProfile.selectable=false
table.Table.ValueGenerator.selectable=false
table.Table.ValueGeneratorCondition.selectable=false
table.Table.ValueGeneratorThematicStyle.selectable=false
table.Table.VirtualWall.selectable=false
table.Table.WakeTurbulenceCategory.selectable=false
table.Table.WakeTurbulenceCategoryCondition.selectable=false
table.Table.WakeTurbulenceCategoryThematicStyle.selectable=false
table.Table.WakeTurbulenceSeparation.selectable=false
table.Table.WakeTurbulenceTimeSeparation.selectable=false
table.Table.Waypoint.selectable=false
table.Table.WaypointArrivalInformation.selectable=false
table.Table.WaypointCondition.selectable=false
table.Table.WaypointGroup.selectable=false
table.Table.WaypointGroupCondition.selectable=false
table.Table.WaypointGroupThematicStyle.selectable=false
table.Table.WaypointInTrailSeparation.selectable=false
table.Table.WaypointPair.selectable=false
table.Table.WaypointRule.selectable=false
table.Table.WaypointSequence.selectable=false
table.Table.WaypointSequenceCondition.selectable=false
table.Table.WaypointSequenceThematicStyle.selectable=false
table.Table.WaypointThematicStyle.selectable=false
table.Table.WeatherCBForecast.selectable=false
table.Table.WeatherCBForecastArea.selectable=false
table.Table.WeatherCBForecastAreaCondition.selectable=false
table.Table.WeatherCBForecastAreaThematicStyle.selectable=false
table.Table.WeatherRadarTile.selectable=false
table.Table.WeatherSourceParameters.selectable=false
table.Table.WeightRandom.selectable=false
table.Table.WindArea.selectable=false
table.Table.WizerReadyMessage.selectable=false
table.Table.WorkloadMonitoringTaskFileIdentifier.selectable=false
table.Table.WorkloadTaskFileIdentifier.selectable=false
tma.ApproachSequencing=true
view.map.style=100 106 116 255;79 84 84 255;122 119 111 255;128 128 128 255;;;;;None;;;;MAPS\#1;NM_m;0°;;Left;Bottom;;false;1;false;;;10
