#Header:concrete-version1.0
#ID LocationList Airport Type TileHeading
#LineCount=1         
AERODROME_0001;N 22 18 33.327 E 113 53 23.086,N 22 18 32.658 E 113 53 23.014,N 22 18 31.833 E 113 53 23.038,N 22 18 30.986 E 113 53 23.4,N 22 18 27.283 E 113 53 24.918,N 22 18 26.837 E 113 53 25.304,N 22 18 26.257 E 113 53 25.979,N 22 18 25.789 E 113 53 26.775,N 22 18 25.476 E 113 53 27.522,N 22 18 25.365 E 113 53 28.51,N 22 18 25.499 E 113 53 42.662,N 22 18 25.521 E 113 53 43.674,N 22 18 25.454 E 113 53 44.711,N 22 18 25.164 E 113 53 45.651,N 22 18 24.897 E 113 53 46.35,N 22 18 24.312 E 113 53 46.821,N 22 18 18.684 E 113 53 48.883,N 22 18 18.42 E 113 53 48.067,N 22 18 15.186 E 113 53 49.187,N 22 18 15.597 E 113 53 50.466,N 22 18 14.436 E 113 53 50.882,N 22 18 08.484 E 113 53 53.04,N 22 18 08.234 E 113 53 52.994,N 22 18 08.1 E 113 53 52.977,N 22 18 07.901 E 113 53 52.958,N 22 18 06.633 E 113 53 53.184,N 22 18 05.828 E 113 53 53.107,N 22 18 04.868 E 113 53 52.769,N 22 18 01.071 E 113 53 49.853,N 22 17 48.827 E 113 53 40.101,N 22 17 47.041 E 113 53 38.845,N 22 17 45.817 E 113 53 38.334,N 22 17 44.673 E 113 53 38.015,N 22 17 42.958 E 113 53 38.015,N 22 17 41.635 E 113 53 38.247,N 22 17 40.719 E 113 53 38.701,N 22 17 39.576 E 113 53 39.628,N 22 17 38.432 E 113 53 41.018,N 22 17 37.445 E 113 53 43.007,N 22 17 37.106 E 113 53 45.769,N 22 17 37.106 E 113 53 48.357,N 22 17 37.088 E 113 53 51.118,N 22 17 37.124 E 113 53 55.869,N 22 17 37.329 E 113 53 57.192,N 22 17 38.428 E 113 54 00.822,N 22 17 39.415 E 113 54 04.323,N 22 17 40.403 E 113 54 08.402,N 22 17 41.22 E 113 54 12.651,N 22 17 41.904 E 113 54 17.421,N 22 17 42.431 E 113 54 22.258,N 22 17 42.627 E 113 54 25.609,N 22 17 42.752 E 113 54 28.95,N 22 17 42.7 E 113 54 38.504,N 22 17 42.806 E 113 54 41.889,N 22 17 42.475 E 113 54 47.76,N 22 17 43.19 E 113 54 47.915,N 22 17 43.19 E 113 54 52.146,N 22 17 43.19 E 113 54 54.238,N 22 17 43.19 E 113 54 56.602,N 22 17 43.19 E 113 54 57.957,N 22 17 42.761 E 113 54 57.957,N 22 17 42.708 E 113 54 58.701,N 22 17 42.644 E 113 54 59.601,N 22 17 42.582 E 113 54 59.968,N 22 17 41.618 E 113 55 02.437,N 22 17 40.331 E 113 55 07.381,N 22 17 38.971 E 113 55 11.893,N 22 17 38.305 E 113 55 14.1,N 22 17 37.582 E 113 55 16.498,N 22 17 36.186 E 113 55 21.131,N 22 17 34.253 E 113 55 27.841,N 22 17 31.341 E 113 55 37.95,N 22 17 29.351 E 113 55 44.238,N 22 17 29.624 E 113 55 44.547,N 22 17 29.472 E 113 55 45.141,N 22 17 27.403 E 113 55 52.088,N 22 17 26.925 E 113 55 53.488,N 22 17 26.82 E 113 55 53.558,N 22 17 26.619 E 113 55 53.712,N 22 17 26.336 E 113 55 54.174,N 22 17 25.92 E 113 55 55.086,N 22 17 25.327 E 113 55 55.94,N 22 17 24.917 E 113 55 56.575,N 22 17 24.743 E 113 55 56.906,N 22 17 24.728 E 113 55 57.107,N 22 17 24.768 E 113 55 57.348,N 22 17 24.866 E 113 55 57.79,N 22 17 24.951 E 113 55 58.259,N 22 17 25.022 E 113 55 58.886,N 22 17 25.272 E 113 55 59.827,N 22 17 25.853 E 113 56 01.647,N 22 17 26.143 E 113 56 02.367,N 22 17 26.452 E 113 56 02.748,N 22 17 27.962 E 113 56 04.153,N 22 17 29.065 E 113 56 04.776,N 22 17 29.619 E 113 56 05.215,N 22 17 29.914 E 113 56 05.601,N 22 17 30.119 E 113 56 05.896,N 22 17 30.477 E 113 56 06.441,N 22 17 31.205 E 113 56 07.185,N 22 17 31.732 E 113 56 07.76,N 22 17 32.438 E 113 56 08.465,N 22 17 32.96 E 113 56 08.889,N 22 17 33.363 E 113 56 09.208,N 22 17 33.836 E 113 56 09.676,N 22 17 34.515 E 113 56 10.569,N 22 17 35.578 E 113 56 11.96,N 22 17 38.259 E 113 56 14.973,N 22 17 40.447 E 113 56 17.377,N 22 17 41.135 E 113 56 17.995,N 22 17 41.365 E 113 56 18.084,N 22 17 41.624 E 113 56 18.099,N 22 17 41.771 E 113 56 17.799,N 22 17 42.249 E 113 56 17.433,N 22 17 46.002 E 113 56 15.203,N 22 17 47.764 E 113 56 14.557,N 22 17 51.082 E 113 56 13.773,N 22 17 52.311 E 113 56 14.044,N 22 17 52.984 E 113 56 13.573,N 22 17 54.331 E 113 56 13.231,N 22 17 54.659 E 113 56 13.464,N 22 17 56.25 E 113 56 12.832,N 22 17 56.748 E 113 56 12.516,N 22 17 57.822 E 113 56 11.828,N 22 17 58.163 E 113 56 11.594,N 22 17 58.985 E 113 56 11.39,N 22 17 59.464 E 113 56 11.629,N 22 18 01.198 E 113 56 12.602,N 22 18 02.853 E 113 56 12.5,N 22 18 04.081 E 113 56 11.552,N 22 18 04.469 E 113 56 11.418,N 22 18 04.981 E 113 56 11.494,N 22 18 05.687 E 113 56 11.801,N 22 18 06.115 E 113 56 12.148,N 22 18 06.401 E 113 56 12.173,N 22 18 07 E 113 56 12.674,N 22 18 07.818 E 113 56 13.376,N 22 18 08.283 E 113 56 14.616,N 22 18 08.496 E 113 56 16.33,N 22 18 09.886 E 113 56 18.588,N 22 18 10.009 E 113 56 20.891,N 22 18 10.241 E 113 56 21.535,N 22 18 11.158 E 113 56 22.289,N 22 18 11.394 E 113 56 22.732,N 22 18 12.875 E 113 56 24.371,N 22 18 13.218 E 113 56 24.533,N 22 18 13.595 E 113 56 23.844,N 22 18 13.717 E 113 56 23.289,N 22 18 14.156 E 113 56 22.455,N 22 18 14.262 E 113 56 22.445,N 22 18 14.399 E 113 56 22.405,N 22 18 14.593 E 113 56 22.173,N 22 18 14.793 E 113 56 22.452,N 22 18 15.302 E 113 56 22.854,N 22 18 16.758 E 113 56 22.852,N 22 18 17.988 E 113 56 21.079,N 22 18 18.383 E 113 56 19.543,N 22 18 19.358 E 113 56 18.823,N 22 18 19.495 E 113 56 19.009,N 22 18 19.824 E 113 56 19.125,N 22 18 20.121 E 113 56 19.027,N 22 18 20.895 E 113 56 19.753,N 22 18 21.081 E 113 56 19.711,N 22 18 21.975 E 113 56 19.687,N 22 18 22.591 E 113 56 20.008,N 22 18 22.819 E 113 56 19.649,N 22 18 23.07 E 113 56 19.024,N 22 18 23.2 E 113 56 18.392,N 22 18 23.171 E 113 56 18.097,N 22 18 23.287 E 113 56 18.215,N 22 18 23.457 E 113 56 18.335,N 22 18 23.642 E 113 56 18.397,N 22 18 23.887 E 113 56 18.39,N 22 18 24.074 E 113 56 18.295,N 22 18 24.195 E 113 56 18.163,N 22 18 24.3 E 113 56 17.972,N 22 18 24.334 E 113 56 17.774,N 22 18 24.293 E 113 56 17.557,N 22 18 25.505 E 113 56 17.675,N 22 18 28.05 E 113 56 18.442,N 22 18 31.767 E 113 56 19.031,N 22 18 33.642 E 113 56 19.363,N 22 18 35.638 E 113 56 19.989,N 22 18 36.463 E 113 56 20.407,N 22 18 37.814 E 113 56 21.085,N 22 18 38.987 E 113 56 21.808,N 22 18 40.023 E 113 56 22.6,N 22 18 42.836 E 113 56 25.106,N 22 18 44.631 E 113 56 26.756,N 22 18 46.079 E 113 56 28.735,N 22 18 46.659 E 113 56 29.195,N 22 18 49.751 E 113 56 31.443,N 22 18 51.12 E 113 56 32.522,N 22 18 55.605 E 113 56 35.796,N 22 18 57.378 E 113 56 37.051,N 22 18 57.652 E 113 56 37.167,N 22 18 57.996 E 113 56 37.237,N 22 19 02.615 E 113 56 38.268,N 22 19 03.168 E 113 56 38.383,N 22 19 03.089 E 113 56 39.178,N 22 19 02.878 E 113 56 40.73,N 22 19 03.367 E 113 56 40.821,N 22 19 03.732 E 113 56 39.287,N 22 19 03.908 E 113 56 38.545,N 22 19 05.201 E 113 56 38.81,N 22 19 05.102 E 113 56 39.618,N 22 19 04.823 E 113 56 41.174,N 22 19 05.087 E 113 56 41.216,N 22 19 05.31 E 113 56 41.232,N 22 19 05.676 E 113 56 39.663,N 22 19 05.85 E 113 56 38.934,N 22 19 06.843 E 113 56 39.158,N 22 19 06.3 E 113 56 41.895,N 22 19 06.64 E 113 56 41.974,N 22 19 07.183 E 113 56 39.237,N 22 19 08.512 E 113 56 39.508,N 22 19 09.124 E 113 56 39.711,N 22 19 09.499 E 113 56 39.861,N 22 19 09.604 E 113 56 39.916,N 22 19 09.95 E 113 56 40.329,N 22 19 10.951 E 113 56 41.56,N 22 19 11.236 E 113 56 42.376,N 22 19 11.826 E 113 56 42.217,N 22 19 11.75 E 113 56 41.792,N 22 19 12.456 E 113 56 41.208,N 22 19 12.809 E 113 56 41.15,N 22 19 13.036 E 113 56 41.208,N 22 19 13.273 E 113 56 41.362,N 22 19 13.394 E 113 56 41.7,N 22 19 13.412 E 113 56 42.12,N 22 19 13.38 E 113 56 45.486,N 22 19 11.156 E 113 56 45.753,N 22 19 11.15 E 113 56 45.843,N 22 19 10.169 E 113 56 45.563,N 22 19 10.151 E 113 56 45.017,N 22 19 10.142 E 113 56 44.846,N 22 19 10.084 E 113 56 44.73,N 22 19 10.008 E 113 56 44.706,N 22 19 09.912 E 113 56 44.754,N 22 19 09.872 E 113 56 45,N 22 19 09.919 E 113 56 45.698,N 22 19 09.953 E 113 56 45.843,N 22 19 10.138 E 113 56 45.922,N 22 19 10.969 E 113 56 46.113,N 22 19 11.344 E 113 56 46.142,N 22 19 13.47 E 113 56 45.871,N 22 19 14.568 E 113 56 45.485,N 22 19 15 E 113 56 45.176,N 22 19 15.078 E 113 56 44.766,N 22 19 15.191 E 113 56 44.611,N 22 19 15.372 E 113 56 44.568,N 22 19 15.542 E 113 56 44.587,N 22 19 15.538 E 113 56 44.72,N 22 19 15.891 E 113 56 44.718,N 22 19 15.886 E 113 56 44.935,N 22 19 22.161 E 113 56 45.466,N 22 19 22.179 E 113 56 44.879,N 22 19 22.367 E 113 56 44.587,N 22 19 22.603 E 113 56 44.457,N 22 19 22.862 E 113 56 44.443,N 22 19 23.407 E 113 56 44.539,N 22 19 23.652 E 113 56 44.418,N 22 19 23.93 E 113 56 44.172,N 22 19 24.47 E 113 56 42.666,N 22 19 24.698 E 113 56 42.284,N 22 19 24.979 E 113 56 42,N 22 19 25.207 E 113 56 41.816,N 22 19 25.56 E 113 56 41.845,N 22 19 25.622 E 113 56 41,N 22 19 25.086 E 113 56 40.928,N 22 19 24.8 E 113 56 40.389,N 22 19 23.778 E 113 56 39.016,N 22 19 22.259 E 113 56 37.423,N 22 19 21.679 E 113 56 36.906,N 22 19 21.433 E 113 56 36.549,N 22 19 21.219 E 113 56 36.023,N 22 19 18.651 E 113 56 22.543,N 22 19 18.427 E 113 56 21.235,N 22 19 18.189 E 113 56 20.494,N 22 19 18.126 E 113 56 18.725,N 22 19 18.175 E 113 56 17.822,N 22 19 18.377 E 113 56 17.017,N 22 19 18.62 E 113 56 16.392,N 22 19 18.996 E 113 56 15.648,N 22 19 19.727 E 113 56 14.888,N 22 19 20.158 E 113 56 14.504,N 22 19 20.597 E 113 56 14.286,N 22 19 21.049 E 113 56 14.06,N 22 19 26.784 E 113 56 11.893,N 22 19 27.299 E 113 56 11.57,N 22 19 27.745 E 113 56 11.269,N 22 19 28.253 E 113 56 10.712,N 22 19 28.761 E 113 56 10.095,N 22 19 29.06 E 113 56 09.681,N 22 19 29.303 E 113 56 09.027,N 22 19 41.267 E 113 55 26.872,N 22 19 41.538 E 113 55 25.909,N 22 19 41.712 E 113 55 25.465,N 22 19 41.928 E 113 55 25.164,N 22 19 42.213 E 113 55 24.803,N 22 19 42.485 E 113 55 24.547,N 22 19 42.909 E 113 55 24.291,N 22 19 43.564 E 113 55 23.976,N 22 19 55.158 E 113 55 19.334,N 22 19 56.682 E 113 55 18.732,N 22 19 57.065 E 113 55 18.393,N 22 19 57.503 E 113 55 17.844,N 22 19 57.935 E 113 55 17.174,N 22 19 58.213 E 113 55 16.678,N 22 19 58.45 E 113 55 16.166,N 22 19 58.498 E 113 55 15.798,N 22 19 58.554 E 113 55 14.94,N 22 19 58.554 E 113 55 14.383,N 22 19 58.255 E 113 55 12.961,N 22 19 58.151 E 113 55 12.464,N 22 19 58.164 E 113 55 12.118,N 22 19 58.276 E 113 55 11.63,N 22 19 58.512 E 113 55 11.118,N 22 19 58.672 E 113 55 10.824,N 22 19 59.027 E 113 55 10.493,N 22 19 59.285 E 113 55 10.268,N 22 19 59.64 E 113 55 10.125,N 22 20 03.092 E 113 55 08.71,N 22 20 03.447 E 113 55 08.514,N 22 20 03.836 E 113 55 08.199,N 22 20 04.254 E 113 55 07.702,N 22 20 04.567 E 113 55 07.258,N 22 20 04.887 E 113 55 06.709,N 22 20 05.172 E 113 55 06.017,N 22 20 05.325 E 113 55 05.43,N 22 20 05.325 E 113 55 04.911,N 22 20 05.29 E 113 55 04.286,N 22 20 05.214 E 113 55 03.722,N 22 20 05.089 E 113 55 03.323,N 22 20 01.379 E 113 54 51.805,N 22 20 01.303 E 113 54 51.451,N 22 20 01.254 E 113 54 50.947,N 22 20 01.352 E 113 54 49.179,N 22 20 01.414 E 113 54 48.57,N 22 20 01.345 E 113 54 47.975,N 22 20 01.233 E 113 54 47.532,N 22 19 58.011 E 113 54 37.488,N 22 19 57.747 E 113 54 36.705,N 22 19 57.468 E 113 54 35.952,N 22 19 57.19 E 113 54 35.336,N 22 19 56.877 E 113 54 34.794,N 22 19 56.418 E 113 54 34.169,N 22 19 55.743 E 113 54 33.402,N 22 19 55.408 E 113 54 32.966,N 22 19 55.221 E 113 54 32.529,N 22 19 54.991 E 113 54 31.867,N 22 19 28.584 E 113 53 10.058,N 22 19 28.317 E 113 53 09.19,N 22 19 28.249 E 113 53 08.969,N 22 19 28.169 E 113 53 08.313,N 22 19 28.249 E 113 53 06.947,N 22 19 28.281 E 113 53 06.325,N 22 19 28.249 E 113 53 05.616,N 22 19 27.993 E 113 53 04.786,N 22 19 24.123 E 113 52 53.067,N 22 19 23.852 E 113 52 52.463,N 22 19 23.564 E 113 52 52.013,N 22 19 23.18 E 113 52 51.564,N 22 19 22.684 E 113 52 51.028,N 22 19 22.284 E 113 52 50.509,N 22 19 21.933 E 113 52 49.732,N 22 19 21.71 E 113 52 49.041,N 22 19 18.303 E 113 52 38.496,N 22 19 17.935 E 113 52 37.615,N 22 19 17.328 E 113 52 36.768,N 22 19 16.576 E 113 52 36.06,N 22 19 15.889 E 113 52 35.506,N 22 19 15.121 E 113 52 35.299,N 22 19 14.306 E 113 52 35.126,N 22 19 13.522 E 113 52 35.161,N 22 19 12.755 E 113 52 35.385,N 22 19 02.601 E 113 52 39.24,N 22 19 02.122 E 113 52 39.499,N 22 19 01.754 E 113 52 39.793,N 22 19 01.418 E 113 52 40.173,N 22 19 00.987 E 113 52 40.623,N 22 19 00.683 E 113 52 41.193,N 22 19 00.411 E 113 52 41.902,N 22 19 00.219 E 113 52 42.783,N 22 19 00.107 E 113 52 43.509,N 22 19 00.171 E 113 52 44.045,N 22 19 00.427 E 113 52 45.099,N 22 19 21.707 E 113 53 50.96,N 22 19 22.093 E 113 53 52.191,N 22 19 22.257 E 113 53 53.038,N 22 19 22.252 E 113 53 53.688,N 22 19 22.14 E 113 53 54.255,N 22 19 22.028 E 113 53 54.714,N 22 19 21.715 E 113 53 55.293,N 22 19 21.017 E 113 53 55.829,N 22 18 59.042 E 113 54 04.117,N 22 18 58.396 E 113 54 04.262,N 22 18 57.771 E 113 54 04.359,N 22 18 57.325 E 113 54 04.19,N 22 18 56.745 E 113 54 03.949,N 22 18 56.344 E 113 54 03.491,N 22 18 55.898 E 113 54 02.454,N 22 18 50.01 E 113 53 44.084,N 22 18 49.564 E 113 53 42.855,N 22 18 49.006 E 113 53 41.938,N 22 18 48.471 E 113 53 41.046,N 22 18 35.558 E 113 53 24.219,N 22 18 35.023 E 113 53 23.858,N 22 18 34.242 E 113 53 23.424,N 22 18 33.327 E 113 53 23.086;;;
