#Header:useractionhistory-version1.0
#ID Date Action Type Message SetUp
#LineCount=22        
USERACTIONHISTORY#1;2017-01-23 09:24:47;Project closed;;Project closed;ProjectConsistency[NotConsistent]
USERACTIONHISTORY#2;2017-02-02 11:14:05;Project closed;;Project closed;ProjectConsistency[NotConsistent]
USERACTIONHISTORY#3;2017-02-03 13:30:02;Project closed;;Project closed;ProjectConsistency[NotConsistent]
USERACTIONHISTORY#4;2017-02-03 13:31:52;Project closed;;Project closed;ProjectConsistency[NotConsistent]
USERACTIONHISTORY#5;2017-02-03 13:36:14;Project closed;;Project closed;ProjectConsistency[NotConsistent]
USERACTIONHISTORY#6;2017-02-03 13:38:13;Project closed;;Project closed;ProjectConsistency[NotConsistent]
USERACTIONHISTORY#7;2017-02-03 13:45:07;Project closed;;Project closed;ProjectConsistency[NotConsistent]
USERACTIONHISTORY#8;2017-02-03 14:08:41;Project closed;;Project closed;ProjectConsistency[NotConsistent]
USERACTIONHISTORY#9;2017-02-03 14:12:29;Project closed;;Project closed;ProjectConsistency[NotConsistent]
USERACTIONHISTORY#10;2020-11-03 11:23:14;Project opened;;Project opened;Version[2-3]
USERACTIONHISTORY#11;2020-11-03 11:23:15;Project saved;;Project saved;Version[2-3]
USERACTIONHISTORY#12;2020-11-03 11:23:17;Project closed;;Project closed;ProjectConsistency[NotConsistent]
USERACTIONHISTORY#13;2021-07-29 00:12:32;Project opened;;Project opened;Version[2-4-0B14]
USERACTIONHISTORY#14;2021-07-29 00:12:35;New project;Display message;New project has been successfully created from installation default;
USERACTIONHISTORY#15;2021-07-29 00:13:20;Save project as;Choose a file;Choose a file;ChosenFile[C:\\Users\\michael.demura\\Documents\\airTOP Scripting\\OSM Import\\Airtop Project\\HKG.prj]
USERACTIONHISTORY#16;2021-07-29 00:13:20;Project saved;;Project saved;Version[2-4-0B14]
USERACTIONHISTORY#17;2021-07-29 01:12:50;Project closed;;Project closed;ProjectConsistency[NotConsistent]
USERACTIONHISTORY#18;2021-07-29 01:13:00;Project opened;;Project opened;Version[2-4-0B14]
USERACTIONHISTORY#19;2021-07-29 01:13:00;HKG   [C:\Users\michael.demura\Docume...ing\OSM Import\Airtop Project\];Display message;Project has been successfully opened ...;
USERACTIONHISTORY#20;2021-07-29 01:14:51;Save project;Confirm;Save current project ?;Answer[YES]
USERACTIONHISTORY#21;2021-07-29 01:14:51;Project saved;;Project saved;Version[2-4-0B14]
USERACTIONHISTORY#22;2021-07-29 01:18:52;Project closed;;Project closed;ProjectConsistency[NotConsistent]
