#Header:building-version1.0
#ID DisplayName Airport Height BaseHeight LocationList RoofColor RoofTexture RoofTextureLength SideColor SideTexture SideTextureLength RepeatSideTextureSequence SideTextureList
#LineCount=117       
BUILDING_0001; Hong Kong SkyCity Marriott Hotel;;15ft;;N 22 19 08.036 E 113 56 36.142,N 22 19 08.926 E 113 56 36.878,N 22 19 09.147 E 113 56 37.023,N 22 19 10.558 E 113 56 37.669,N 22 19 10.552 E 113 56 37.73,N 22 19 10.55 E 113 56 37.794,N 22 19 10.463 E 113 56 38.533,N 22 19 09.901 E 113 56 38.272,N 22 19 09.132 E 113 56 37.788,N 22 19 08.702 E 113 56 37.537,N 22 19 07.78 E 113 56 36.772,N 22 19 06.672 E 113 56 35.518,N 22 19 07.299 E 113 56 35.275,N 22 19 08.036 E 113 56 36.142;;,None;;;,None;;false;
BUILDING_0002; Tradeport Logistics Centre;;15ft;;N 22 17 46.063 E 113 55 51.833,N 22 17 44.097 E 113 55 52.613,N 22 17 45.738 E 113 55 58.137,N 22 17 47.754 E 113 55 57.447,N 22 17 46.063 E 113 55 51.833;;,None;;;,None;;false;
BUILDING_0003; Asia Airfreight Terminal;;15ft;;N 22 17 48.648 E 113 55 14.078,N 22 17 48.87 E 113 55 14.691,N 22 17 50.356 E 113 55 14.17,N 22 17 50.608 E 113 55 14.957,N 22 17 48.738 E 113 55 15.722,N 22 17 48.754 E 113 55 15.804,N 22 17 48.48 E 113 55 15.91,N 22 17 51.114 E 113 55 23.613,N 22 17 53.83 E 113 55 22.57,N 22 17 52.15 E 113 55 17.626,N 22 17 53.008 E 113 55 17.318,N 22 17 51.793 E 113 55 13.455,N 22 17 51.624 E 113 55 12.964,N 22 17 50.62 E 113 55 13.347,N 22 17 50.514 E 113 55 13.386,N 22 17 48.648 E 113 55 14.078;;,None;;;,None;;false;
BUILDING_0004; AAT Terminal 2;;15ft;;N 22 17 47.439 E 113 55 14.752,N 22 17 50.298 E 113 55 23.713,N 22 17 47.146 E 113 55 24.964,N 22 17 46.796 E 113 55 25.103,N 22 17 43.901 E 113 55 16.104,N 22 17 43.958 E 113 55 16.082,N 22 17 44.184 E 113 55 15.996,N 22 17 47.439 E 113 55 14.752;;,None;;;,None;;false;
BUILDING_0005;;;15ft;;N 22 18 02.838 E 113 55 48.998,N 22 18 01.419 E 113 55 49.524,N 22 18 01.714 E 113 55 50.452,N 22 18 03.132 E 113 55 49.927,N 22 18 02.838 E 113 55 48.998;;,None;;;,None;;false;
BUILDING_0006;;;15ft;;N 22 18 03.758 E 113 55 50.299,N 22 18 01.872 E 113 55 50.983,N 22 18 02.392 E 113 55 52.565,N 22 18 04.215 E 113 55 51.833,N 22 18 03.758 E 113 55 50.299;;,None;;;,None;;false;
BUILDING_0007; Gate Gourmet Catering Building;;15ft;;N 22 18 13.326 E 113 55 52.172,N 22 18 11.714 E 113 55 52.758,N 22 18 11.789 E 113 55 52.999,N 22 18 11.98 E 113 55 52.93,N 22 18 12.22 E 113 55 53.7,N 22 18 12.136 E 113 55 53.731,N 22 18 12.189 E 113 55 53.901,N 22 18 12.351 E 113 55 53.841,N 22 18 12.553 E 113 55 54.489,N 22 18 12.18 E 113 55 54.625,N 22 18 12.263 E 113 55 54.892,N 22 18 12.567 E 113 55 54.782,N 22 18 12.779 E 113 55 55.464,N 22 18 14.302 E 113 55 54.91,N 22 18 13.999 E 113 55 53.935,N 22 18 14.23 E 113 55 53.85,N 22 18 14.048 E 113 55 53.262,N 22 18 13.842 E 113 55 53.337,N 22 18 13.768 E 113 55 53.099,N 22 18 13.94 E 113 55 53.036,N 22 18 13.801 E 113 55 52.59,N 22 18 13.492 E 113 55 52.703,N 22 18 13.326 E 113 55 52.172;;,None;;;,None;;false;
BUILDING_0008; Airport Police Station;;15ft;;N 22 18 08.137 E 113 55 53.781,N 22 18 07.892 E 113 55 53.871,N 22 18 07.797 E 113 55 53.594,N 22 18 07.415 E 113 55 53.729,N 22 18 07.505 E 113 55 54.012,N 22 18 07.246 E 113 55 54.107,N 22 18 08.563 E 113 55 58.182,N 22 18 09.507 E 113 55 57.823,N 22 18 09.158 E 113 55 56.751,N 22 18 10.353 E 113 55 56.302,N 22 18 10.116 E 113 55 55.576,N 22 18 08.874 E 113 55 56.042,N 22 18 08.137 E 113 55 53.781;;,None;;;,None;;false;
BUILDING_0009; LSG Sky Chefs;;15ft;;N 22 18 07.555 E 113 55 57.819,N 22 18 07.734 E 113 55 57.742,N 22 18 06.733 E 113 55 54.691,N 22 18 06.376 E 113 55 54.807,N 22 18 06.261 E 113 55 54.477,N 22 18 04.263 E 113 55 55.236,N 22 18 04.411 E 113 55 55.656,N 22 18 03.66 E 113 55 55.927,N 22 18 04.661 E 113 55 58.939,N 22 18 07.555 E 113 55 57.819;;,None;;;,None;;false;
BUILDING_0010;- Dah Chong Hong - Dragonair Airport GSE Services;;15ft;;N 22 18 16.309 E 113 55 58.714,N 22 18 15.603 E 113 55 58.962,N 22 18 14.772 E 113 55 59.254,N 22 18 15.88 E 113 56 02.769,N 22 18 17.381 E 113 56 02.267,N 22 18 16.309 E 113 55 58.714;;,None;;;,None;;false;
BUILDING_0011; CNAC House;;15ft;;N 22 18 10.358 E 113 56 14.566,N 22 18 09.008 E 113 56 15.089,N 22 18 09.836 E 113 56 17.652,N 22 18 10.108 E 113 56 17.553,N 22 18 10.979 E 113 56 17.239,N 22 18 11.157 E 113 56 17.175,N 22 18 10.358 E 113 56 14.566;;,None;;;,None;;false;
BUILDING_0012; Cathay Dragon House;;15ft;;N 22 18 13.63 E 113 56 21.484,N 22 18 13.287 E 113 56 20.43,N 22 18 12.788 E 113 56 20.62,N 22 18 12.718 E 113 56 20.405,N 22 18 12.213 E 113 56 20.597,N 22 18 12.12 E 113 56 20.312,N 22 18 12.189 E 113 56 20.286,N 22 18 11.359 E 113 56 17.737,N 22 18 11.145 E 113 56 17.819,N 22 18 10.295 E 113 56 18.142,N 22 18 10.003 E 113 56 18.253,N 22 18 10.84 E 113 56 20.823,N 22 18 11.907 E 113 56 20.417,N 22 18 11.986 E 113 56 20.66,N 22 18 11.719 E 113 56 20.761,N 22 18 11.782 E 113 56 20.955,N 22 18 11.956 E 113 56 20.889,N 22 18 12.312 E 113 56 21.985,N 22 18 13.63 E 113 56 21.484;;,None;;;,None;;false;
BUILDING_0013; DHL Central Asia Hub;;15ft;;N 22 17 48.888 E 113 54 52.214,N 22 17 51.305 E 113 54 59.747,N 22 17 48.449 E 113 55 00.817,N 22 17 48.351 E 113 55 00.857,N 22 17 48.266 E 113 55 00.774,N 22 17 48.228 E 113 55 00.659,N 22 17 48.191 E 113 55 00.469,N 22 17 48.207 E 113 55 00.351,N 22 17 48.143 E 113 55 00.141,N 22 17 48.224 E 113 55 00.115,N 22 17 48.199 E 113 55 00.035,N 22 17 48.291 E 113 55 00.001,N 22 17 48.025 E 113 54 59.172,N 22 17 48.106 E 113 54 59.142,N 22 17 47.359 E 113 54 56.812,N 22 17 47.114 E 113 54 56.904,N 22 17 45.961 E 113 54 53.311,N 22 17 48.888 E 113 54 52.214;;,None;;;,None;;false;
BUILDING_0014; Airport Fire Contingent Main Fire Station;;15ft;;N 22 17 55.522 E 113 54 50.171,N 22 17 55.125 E 113 54 50.311,N 22 17 55.136 E 113 54 50.34,N 22 17 55.068 E 113 54 50.359,N 22 17 55.064 E 113 54 50.337,N 22 17 54.686 E 113 54 50.472,N 22 17 54.695 E 113 54 50.529,N 22 17 54.633 E 113 54 50.548,N 22 17 54.622 E 113 54 50.495,N 22 17 54.16 E 113 54 50.649,N 22 17 54.324 E 113 54 51.201,N 22 17 54.685 E 113 54 51.084,N 22 17 54.795 E 113 54 51.358,N 22 17 55.057 E 113 54 52.175,N 22 17 55.991 E 113 54 51.816,N 22 17 55.616 E 113 54 50.78,N 22 17 55.818 E 113 54 50.701,N 22 17 55.693 E 113 54 50.3,N 22 17 55.617 E 113 54 50.319,N 22 17 55.592 E 113 54 50.223,N 22 17 55.537 E 113 54 50.235,N 22 17 55.522 E 113 54 50.171;;,None;;;,None;;false;
BUILDING_0015; Multi-storey Car Park 4;;15ft;;N 22 19 05.75 E 113 56 01.719,N 22 19 05.502 E 113 56 01.81,N 22 19 03.723 E 113 56 02.464,N 22 19 03.463 E 113 56 02.8,N 22 19 04.668 E 113 56 06.615,N 22 19 04.994 E 113 56 06.783,N 22 19 06.677 E 113 56 06.133,N 22 19 07.082 E 113 56 05.977,N 22 19 05.75 E 113 56 01.719;;,None;;;,None;;false;
BUILDING_0016;;;15ft;;N 22 19 14.358 E 113 56 43.391,N 22 19 14.248 E 113 56 43.393,N 22 19 14.245 E 113 56 43.214,N 22 19 13.923 E 113 56 43.218,N 22 19 13.926 E 113 56 43.375,N 22 19 13.839 E 113 56 43.377,N 22 19 13.86 E 113 56 45.005,N 22 19 14.38 E 113 56 44.997,N 22 19 14.358 E 113 56 43.391;;,None;;;,None;;false;
BUILDING_0017;;;15ft;;N 22 17 36.262 E 113 55 54.113,N 22 17 36.681 E 113 55 53.955,N 22 17 36.181 E 113 55 52.404,N 22 17 36.318 E 113 55 52.353,N 22 17 36.129 E 113 55 51.768,N 22 17 35.957 E 113 55 51.833,N 22 17 35.498 E 113 55 50.371,N 22 17 35.104 E 113 55 50.492,N 22 17 36.262 E 113 55 54.113;;,None;;;,None;;false;
BUILDING_0018; Tung Chung Development Pier;;15ft;;N 22 17 37.852 E 113 56 25.344,N 22 17 38.254 E 113 56 25.241,N 22 17 38.416 E 113 56 25.175,N 22 17 38.526 E 113 56 25.13,N 22 17 40.456 E 113 56 24.862,N 22 17 40.546 E 113 56 25.56,N 22 17 38.642 E 113 56 25.856,N 22 17 38.488 E 113 56 25.837,N 22 17 38.32 E 113 56 25.817,N 22 17 37.917 E 113 56 25.867,N 22 17 37.884 E 113 56 25.588,N 22 17 37.852 E 113 56 25.344;;,None;;;,None;;false;
BUILDING_0019;;;15ft;;N 22 17 35.341 E 113 55 49.92,N 22 17 35.274 E 113 55 49.962,N 22 17 35.231 E 113 55 50.032,N 22 17 35.219 E 113 55 50.116,N 22 17 35.243 E 113 55 50.196,N 22 17 35.297 E 113 55 50.258,N 22 17 35.37 E 113 55 50.288,N 22 17 35.447 E 113 55 50.281,N 22 17 35.515 E 113 55 50.238,N 22 17 35.558 E 113 55 50.168,N 22 17 35.569 E 113 55 50.084,N 22 17 35.546 E 113 55 50.004,N 22 17 35.492 E 113 55 49.943,N 22 17 35.419 E 113 55 49.912,N 22 17 35.341 E 113 55 49.92;;,None;;;,None;;false;
BUILDING_0020;;;15ft;;N 22 17 34.938 E 113 55 50.079,N 22 17 35.019 E 113 55 50.049,N 22 17 35.104 E 113 55 50.06,N 22 17 35.176 E 113 55 50.11,N 22 17 35.221 E 113 55 50.188,N 22 17 35.23 E 113 55 50.28,N 22 17 35.201 E 113 55 50.367,N 22 17 35.141 E 113 55 50.432,N 22 17 35.06 E 113 55 50.462,N 22 17 34.975 E 113 55 50.451,N 22 17 34.903 E 113 55 50.401,N 22 17 34.858 E 113 55 50.323,N 22 17 34.849 E 113 55 50.231,N 22 17 34.877 E 113 55 50.144,N 22 17 34.938 E 113 55 50.079;;,None;;;,None;;false;
BUILDING_0021; HAECO;;15ft;;N 22 18 09.079 E 113 53 55.244,N 22 18 13.125 E 113 53 53.754,N 22 18 13.697 E 113 53 55.512,N 22 18 13.265 E 113 53 55.688,N 22 18 14.651 E 113 53 59.952,N 22 18 15.036 E 113 53 59.81,N 22 18 15.375 E 113 54 00.863,N 22 18 14.313 E 113 54 01.27,N 22 18 14.473 E 113 54 01.755,N 22 18 13.98 E 113 54 01.945,N 22 18 13.845 E 113 54 01.997,N 22 18 12.451 E 113 54 02.533,N 22 18 12.567 E 113 54 02.885,N 22 18 11.649 E 113 54 03.346,N 22 18 09.079 E 113 53 55.244;;,None;;;,None;;false;
BUILDING_0022;;;15ft;;N 22 18 46.927 E 113 56 18.23,N 22 18 45.981 E 113 56 18.573,N 22 18 45.856 E 113 56 18.172,N 22 18 46.803 E 113 56 17.828,N 22 18 46.927 E 113 56 18.23;;,None;;;,None;;false;
BUILDING_0023; Aircraft Recovery Equipment Depot;;15ft;;N 22 18 24.78 E 113 53 48.518,N 22 18 25.078 E 113 53 49.483,N 22 18 21.919 E 113 53 50.619,N 22 18 21.622 E 113 53 49.654,N 22 18 24.78 E 113 53 48.518;;,None;;;,None;;false;
BUILDING_0024;;;15ft;;N 22 18 18.684 E 113 53 48.883,N 22 18 18.457 E 113 53 49.145,N 22 18 17.965 E 113 53 48.246,N 22 18 18.42 E 113 53 48.067,N 22 18 18.684 E 113 53 48.883;;,None;;;,None;;false;
BUILDING_0025; Airport Fire Contingent West Sea Rescue Berth;;15ft;;N 22 18 17.4 E 113 53 49.336,N 22 18 17.513 E 113 53 49.702,N 22 18 16.128 E 113 53 50.199,N 22 18 16.016 E 113 53 49.833,N 22 18 16.66 E 113 53 49.611,N 22 18 17.4 E 113 53 49.336;;,None;;;,None;;false;
BUILDING_0026;;;15ft;;N 22 18 25.532 E 113 53 47.793,N 22 18 25.844 E 113 53 48.757,N 22 18 25.662 E 113 53 48.825,N 22 18 25.351 E 113 53 47.862,N 22 18 25.532 E 113 53 47.793;;,None;;;,None;;false;
BUILDING_0027; Airline Store Building;;15ft;;N 22 17 51.551 E 113 55 56.621,N 22 17 51.244 E 113 55 56.725,N 22 17 51.192 E 113 55 56.547,N 22 17 50.634 E 113 55 56.736,N 22 17 50.005 E 113 55 56.949,N 22 17 50.396 E 113 55 58.293,N 22 17 51.834 E 113 55 57.806,N 22 17 51.92 E 113 55 57.777,N 22 17 51.841 E 113 55 57.503,N 22 17 52.061 E 113 55 57.428,N 22 17 51.981 E 113 55 57.152,N 22 17 51.862 E 113 55 57.192,N 22 17 51.814 E 113 55 57.027,N 22 17 51.681 E 113 55 57.071,N 22 17 51.551 E 113 55 56.621;;,None;;;,None;;false;
BUILDING_0028; Chek Lap Kok Telephone Exchange;;15ft;;N 22 17 49.355 E 113 55 57.389,N 22 17 49.632 E 113 55 58.306,N 22 17 49.65 E 113 55 58.393,N 22 17 49.569 E 113 55 58.431,N 22 17 49.65 E 113 55 58.5,N 22 17 49.65 E 113 55 58.596,N 22 17 49.569 E 113 55 58.702,N 22 17 49.498 E 113 55 58.722,N 22 17 49.417 E 113 55 58.702,N 22 17 49.444 E 113 55 58.779,N 22 17 48.607 E 113 55 59.027,N 22 17 48.399 E 113 55 58.354,N 22 17 48.506 E 113 55 58.306,N 22 17 48.364 E 113 55 57.859,N 22 17 48.694 E 113 55 57.756,N 22 17 48.649 E 113 55 57.66,N 22 17 49.355 E 113 55 57.389;;,None;;;,None;;false;
BUILDING_0029; Airfield Ground Maintenance Building;;15ft;;N 22 18 19.502 E 113 53 50.373,N 22 18 15.626 E 113 53 51.806,N 22 18 15.926 E 113 53 52.754,N 22 18 19.802 E 113 53 51.321,N 22 18 19.502 E 113 53 50.373;;,None;;;,None;;false;
BUILDING_0030; China Aircraft Services Limited;;15ft;;N 22 18 17.766 E 113 53 52.775,N 22 18 15.093 E 113 53 53.747,N 22 18 16.239 E 113 53 57.428,N 22 18 18.912 E 113 53 56.456,N 22 18 17.766 E 113 53 52.775;;,None;;;,None;;false;
BUILDING_0031; Facilities Building;;15ft;;N 22 18 15.953 E 113 56 17.983,N 22 18 16.02 E 113 56 17.289,N 22 18 16.746 E 113 56 17.471,N 22 18 17.039 E 113 56 16.705,N 22 18 16.74 E 113 56 16.63,N 22 18 14.898 E 113 56 16.291,N 22 18 14.846 E 113 56 16.696,N 22 18 14.027 E 113 56 16.511,N 22 18 13.757 E 113 56 15.654,N 22 18 13.126 E 113 56 15.561,N 22 18 12.979 E 113 56 15.964,N 22 18 13.48 E 113 56 17.586,N 22 18 14.09 E 113 56 17.691,N 22 18 14.295 E 113 56 17.726,N 22 18 14.436 E 113 56 17.75,N 22 18 15.953 E 113 56 17.983;;,None;;;,None;;false;
BUILDING_0032; Office Building;;15ft;;N 22 18 14.649 E 113 56 18.346,N 22 18 14.481 E 113 56 18.314,N 22 18 14.285 E 113 56 18.277,N 22 18 13.684 E 113 56 18.162,N 22 18 13.546 E 113 56 18.554,N 22 18 14.536 E 113 56 21.522,N 22 18 15.146 E 113 56 22.421,N 22 18 15.453 E 113 56 22.421,N 22 18 15.928 E 113 56 22.389,N 22 18 15.728 E 113 56 21.426,N 22 18 15.606 E 113 56 21.465,N 22 18 15.457 E 113 56 20.936,N 22 18 15.139 E 113 56 19.923,N 22 18 14.649 E 113 56 18.346;;,None;;;,None;;false;
BUILDING_0033; Air Traffic Control Centre Building;;15ft;;N 22 18 16.856 E 113 56 18.729,N 22 18 16.068 E 113 56 20.36,N 22 18 15.882 E 113 56 20.892,N 22 18 16.088 E 113 56 21.626,N 22 18 16.275 E 113 56 22.457,N 22 18 16.498 E 113 56 22.476,N 22 18 17.043 E 113 56 22.003,N 22 18 17.472 E 113 56 20.98,N 22 18 17.642 E 113 56 20.815,N 22 18 18.125 E 113 56 19.801,N 22 18 18.035 E 113 56 19.753,N 22 18 18.249 E 113 56 19.309,N 22 18 18.178 E 113 56 18.536,N 22 18 17.088 E 113 56 18.575,N 22 18 17.08 E 113 56 18.855,N 22 18 16.856 E 113 56 18.729;;,None;;;,None;;false;
BUILDING_0034; Antenna Farm Building;;15ft;;N 22 18 22.148 E 113 56 18.096,N 22 18 20.978 E 113 56 18.087,N 22 18 20.974 E 113 56 18.728,N 22 18 21.496 E 113 56 18.743,N 22 18 21.517 E 113 56 18.382,N 22 18 21.844 E 113 56 18.405,N 22 18 22.291 E 113 56 18.386,N 22 18 22.3 E 113 56 18.106,N 22 18 22.148 E 113 56 18.096;;,None;;;,None;;false;
BUILDING_0035;;;15ft;;N 22 17 59.41 E 113 55 53.071,N 22 17 58.723 E 113 55 53.33,N 22 17 59.007 E 113 55 54.21,N 22 17 59.694 E 113 55 53.95,N 22 17 59.41 E 113 55 53.071;;,None;;;,None;;false;
BUILDING_0036;;;15ft;;N 22 17 58.798 E 113 55 53.592,N 22 17 58.997 E 113 55 54.209,N 22 17 58.842 E 113 55 54.268,N 22 17 58.643 E 113 55 53.65,N 22 17 58.798 E 113 55 53.592;;,None;;;,None;;false;
BUILDING_0037;;;15ft;;N 22 19 14.262 E 113 56 42.263,N 22 19 14.261 E 113 56 42.773,N 22 19 13.422 E 113 56 42.771,N 22 19 13.423 E 113 56 42.262,N 22 19 14.262 E 113 56 42.263;;,None;;;,None;;false;
BUILDING_0038;;;15ft;;N 22 19 07.106 E 113 56 39.454,N 22 19 06.824 E 113 56 39.387,N 22 19 06.474 E 113 56 41.153,N 22 19 06.753 E 113 56 41.213,N 22 19 07.106 E 113 56 39.454;;,None;;;,None;;false;
BUILDING_0039;A Airport 'A' Substation;;15ft;;N 22 18 50.477 E 113 56 27.359,N 22 18 48.98 E 113 56 26.261,N 22 18 48.221 E 113 56 27.47,N 22 18 48.824 E 113 56 27.913,N 22 18 48.717 E 113 56 28.084,N 22 18 48.823 E 113 56 28.162,N 22 18 48.916 E 113 56 28.015,N 22 18 49.124 E 113 56 28.168,N 22 18 49.024 E 113 56 28.327,N 22 18 49.197 E 113 56 28.454,N 22 18 49.308 E 113 56 28.278,N 22 18 49.713 E 113 56 28.575,N 22 18 50.477 E 113 56 27.359;;,None;;;,None;;false;
BUILDING_0040;;;15ft;;N 22 18 00.713 E 113 56 01.477,N 22 18 01.038 E 113 56 02.486,N 22 18 00.521 E 113 56 02.68,N 22 18 00.196 E 113 56 01.671,N 22 18 00.713 E 113 56 01.477;;,None;;;,None;;false;
BUILDING_0041;;;15ft;;N 22 18 00.257 E 113 56 02.595,N 22 17 59.909 E 113 56 02.719,N 22 18 00.144 E 113 56 03.495,N 22 18 00.492 E 113 56 03.372,N 22 18 00.257 E 113 56 02.595;;,None;;;,None;;false;
BUILDING_0042;;;15ft;;N 22 17 59.926 E 113 56 01.113,N 22 17 59.607 E 113 56 01.213,N 22 17 59.681 E 113 56 01.488,N 22 18 00 E 113 56 01.388,N 22 17 59.926 E 113 56 01.113;;,None;;;,None;;false;
BUILDING_0043;;;15ft;;N 22 18 17.046 E 113 56 07.121,N 22 18 16.758 E 113 56 07.229,N 22 18 16.979 E 113 56 07.914,N 22 18 17.266 E 113 56 07.806,N 22 18 17.046 E 113 56 07.121;;,None;;;,None;;false;
BUILDING_0044;;;15ft;;N 22 18 18.83 E 113 56 05.078,N 22 18 19.039 E 113 56 05.767,N 22 18 18.361 E 113 56 06.008,N 22 18 18.151 E 113 56 05.32,N 22 18 18.83 E 113 56 05.078;;,None;;;,None;;false;
BUILDING_0045;;;15ft;;N 22 18 17.92 E 113 56 04.986,N 22 18 18.022 E 113 56 05.309,N 22 18 17.048 E 113 56 05.668,N 22 18 17.012 E 113 56 05.553,N 22 18 16.42 E 113 56 05.771,N 22 18 16.458 E 113 56 05.891,N 22 18 16.325 E 113 56 05.94,N 22 18 16.221 E 113 56 05.613,N 22 18 17.92 E 113 56 04.986;;,None;;;,None;;false;
BUILDING_0046;;;15ft;;N 22 18 17.496 E 113 56 03.929,N 22 18 17.276 E 113 56 04.018,N 22 18 17.537 E 113 56 04.872,N 22 18 17.758 E 113 56 04.789,N 22 18 17.496 E 113 56 03.929;;,None;;;,None;;false;
BUILDING_0047;;;15ft;;N 22 18 17.317 E 113 56 04.644,N 22 18 17.409 E 113 56 04.899,N 22 18 17.091 E 113 56 05.027,N 22 18 16.998 E 113 56 04.761,N 22 18 17.317 E 113 56 04.644;;,None;;;,None;;false;
BUILDING_0048;;;15ft;;N 22 18 11.206 E 113 55 54.963,N 22 18 10.552 E 113 55 55.198,N 22 18 10.93 E 113 55 56.381,N 22 18 11.586 E 113 55 56.132,N 22 18 11.206 E 113 55 54.963;;,None;;;,None;;false;
BUILDING_0049;;;15ft;;N 22 18 10.443 E 113 55 52.503,N 22 18 08.46 E 113 55 53.233,N 22 18 08.612 E 113 55 53.701,N 22 18 08.874 E 113 55 53.601,N 22 18 08.825 E 113 55 53.46,N 22 18 09.984 E 113 55 53.037,N 22 18 10.022 E 113 55 53.163,N 22 18 10.581 E 113 55 52.949,N 22 18 10.443 E 113 55 52.503;;,None;;;,None;;false;
BUILDING_0050; Pump House;;15ft;;N 22 17 42.539 E 113 55 13.163,N 22 17 41.439 E 113 55 12.773,N 22 17 41.082 E 113 55 13.945,N 22 17 42.183 E 113 55 14.336,N 22 17 42.539 E 113 55 13.163;;,None;;;,None;;false;
BUILDING_0051;;;15ft;;N 22 17 41.57 E 113 55 14.471,N 22 17 41.096 E 113 55 14.3,N 22 17 41.038 E 113 55 14.487,N 22 17 41.512 E 113 55 14.658,N 22 17 41.57 E 113 55 14.471;;,None;;;,None;;false;
BUILDING_0052;;;15ft;;N 22 17 54.037 E 113 54 50.766,N 22 17 54.196 E 113 54 51.241,N 22 17 54.05 E 113 54 51.299,N 22 17 53.89 E 113 54 50.824,N 22 17 54.037 E 113 54 50.766;;,None;;;,None;;false;
BUILDING_0053;ESS;;15ft;;N 22 17 46.509 E 113 54 51.001,N 22 17 45.139 E 113 54 51.52,N 22 17 45.27 E 113 54 51.922,N 22 17 46.639 E 113 54 51.403,N 22 17 46.509 E 113 54 51.001;;,None;;;,None;;false;
BUILDING_0054;Fuel Tank Room;;15ft;;N 22 17 46.996 E 113 54 50.897,N 22 17 46.682 E 113 54 51.003,N 22 17 46.778 E 113 54 51.337,N 22 17 47.092 E 113 54 51.231,N 22 17 46.996 E 113 54 50.897;;,None;;;,None;;false;
BUILDING_0055;;;15ft;;N 22 17 46.9 E 113 54 49.914,N 22 17 46.497 E 113 54 50.066,N 22 17 46.667 E 113 54 50.589,N 22 17 47.069 E 113 54 50.438,N 22 17 46.9 E 113 54 49.914;;,None;;;,None;;false;
BUILDING_0056;;;15ft;;N 22 17 45.582 E 113 54 41.361,N 22 17 45.244 E 113 54 41.359,N 22 17 45.233 E 113 54 43.413,N 22 17 45.572 E 113 54 43.415,N 22 17 45.58 E 113 54 41.793,N 22 17 45.582 E 113 54 41.361;;,None;;;,None;;false;
BUILDING_0057; Government Flying Services Headquarters;;15ft;;N 22 17 45.144 E 113 54 26.122,N 22 17 44.917 E 113 54 26.133,N 22 17 45.027 E 113 54 28.855,N 22 17 45.261 E 113 54 28.844,N 22 17 45.19 E 113 54 27.086,N 22 17 45.281 E 113 54 27.082,N 22 17 45.267 E 113 54 26.737,N 22 17 45.169 E 113 54 26.742,N 22 17 45.144 E 113 54 26.122;;,None;;;,None;;false;
BUILDING_0058;A AGL Vault A;;15ft;;N 22 17 43.921 E 113 54 14.243,N 22 17 43.464 E 113 54 14.398,N 22 17 43.611 E 113 54 14.904,N 22 17 44.068 E 113 54 14.748,N 22 17 43.921 E 113 54 14.243;;,None;;;,None;;false;
BUILDING_0059; Airport Fire Contingent Sub Fire Station;;15ft;;N 22 18 49.439 E 113 55 12.853,N 22 18 49.772 E 113 55 13.827,N 22 18 48.783 E 113 55 14.223,N 22 18 48.437 E 113 55 13.212,N 22 18 48.112 E 113 55 13.342,N 22 18 47.946 E 113 55 12.854,N 22 18 49.279 E 113 55 12.321,N 22 18 49.335 E 113 55 12.485,N 22 18 49.424 E 113 55 12.449,N 22 18 49.548 E 113 55 12.81,N 22 18 49.439 E 113 55 12.853;;,None;;;,None;;false;
BUILDING_0060; Backup Air Traffic Control Complex;;15ft;;N 22 18 42.483 E 113 55 16.191,N 22 18 43.808 E 113 55 15.659,N 22 18 43.707 E 113 55 15.406,N 22 18 43.298 E 113 55 15.583,N 22 18 43.204 E 113 55 15.5,N 22 18 43.147 E 113 55 15.466,N 22 18 43.073 E 113 55 15.444,N 22 18 42.988 E 113 55 15.442,N 22 18 42.914 E 113 55 15.461,N 22 18 42.84 E 113 55 15.493,N 22 18 42.774 E 113 55 15.562,N 22 18 42.724 E 113 55 15.632,N 22 18 42.61 E 113 55 15.608,N 22 18 42.531 E 113 55 15.627,N 22 18 42.463 E 113 55 15.681,N 22 18 42.413 E 113 55 15.77,N 22 18 42.404 E 113 55 15.963,N 22 18 42.483 E 113 55 16.191;;,None;;;,None;;false;
BUILDING_0061;Sewage Pump Station;;15ft;;N 22 18 40.186 E 113 55 14.6,N 22 18 40.451 E 113 55 15.403,N 22 18 39.988 E 113 55 15.594,N 22 18 39.735 E 113 55 14.777,N 22 18 40.186 E 113 55 14.6;;,None;;;,None;;false;
BUILDING_0062; Air Traffic Control Centre;;15ft;;N 22 18 37.599 E 113 55 16.617,N 22 18 37.69 E 113 55 16.877,N 22 18 37.793 E 113 55 17.175,N 22 18 37.924 E 113 55 17.551,N 22 18 35.912 E 113 55 18.368,N 22 18 35.587 E 113 55 17.434,N 22 18 37.599 E 113 55 16.617;;,None;;;,None;;false;
BUILDING_0063;Sea Water Pump House No.1;;15ft;;N 22 19 16.475 E 113 56 05.237,N 22 19 16.844 E 113 56 06.455,N 22 19 15.342 E 113 56 06.986,N 22 19 14.973 E 113 56 05.769,N 22 19 16.475 E 113 56 05.237;;,None;;;,None;;false;
BUILDING_0064; Cathay Pacific Cargo Terminal;;15ft;;N 22 17 49.258 E 113 55 25.575,N 22 17 54.799 E 113 55 23.474,N 22 17 58.001 E 113 55 33.595,N 22 17 51.942 E 113 55 35.791,N 22 17 51.865 E 113 55 35.515,N 22 17 50.508 E 113 55 36.005,N 22 17 49.982 E 113 55 34.402,N 22 17 51.232 E 113 55 33.94,N 22 17 48.859 E 113 55 26.287,N 22 17 45.16 E 113 55 27.651,N 22 17 46.422 E 113 55 31.703,N 22 17 45.35 E 113 55 32.1,N 22 17 44.142 E 113 55 28.001,N 22 17 44.605 E 113 55 27.835,N 22 17 44.453 E 113 55 27.358,N 22 17 49.258 E 113 55 25.575;;,None;;;,None;;false;
BUILDING_0065; Air Traffic Control Tower;;15ft;;N 22 18 38.037 E 113 55 16.738,N 22 18 38.074 E 113 55 16.636,N 22 18 38.14 E 113 55 16.553,N 22 18 38.228 E 113 55 16.498,N 22 18 38.328 E 113 55 16.478,N 22 18 38.428 E 113 55 16.494,N 22 18 38.517 E 113 55 16.546,N 22 18 38.587 E 113 55 16.626,N 22 18 38.626 E 113 55 16.723,N 22 18 38.634 E 113 55 16.828,N 22 18 38.612 E 113 55 16.931,N 22 18 38.56 E 113 55 17.021,N 22 18 38.484 E 113 55 17.088,N 22 18 38.392 E 113 55 17.125,N 22 18 38.295 E 113 55 17.129,N 22 18 38.201 E 113 55 17.099,N 22 18 38.121 E 113 55 17.038,N 22 18 38.063 E 113 55 16.953,N 22 18 38.033 E 113 55 16.847,N 22 18 38.037 E 113 55 16.738;;,None;;;,None;;false;
BUILDING_0066; HKIA Tower;;15ft;;N 22 19 02.85 E 113 56 11.227,N 22 19 03.233 E 113 56 12.43,N 22 19 01.455 E 113 56 13.091,N 22 19 01.072 E 113 56 11.888,N 22 19 02.85 E 113 56 11.227;;,None;;;,None;;false;
BUILDING_0067; Gatehouse No.3;;15ft;;N 22 18 11.455 E 113 55 50.42,N 22 18 11.514 E 113 55 50.606,N 22 18 11.326 E 113 55 50.675,N 22 18 11.464 E 113 55 51.112,N 22 18 11.517 E 113 55 51.28,N 22 18 11.575 E 113 55 51.464,N 22 18 11.686 E 113 55 51.423,N 22 18 11.823 E 113 55 51.372,N 22 18 12.18 E 113 55 51.241,N 22 18 12.124 E 113 55 51.066,N 22 18 12.071 E 113 55 50.897,N 22 18 12.028 E 113 55 50.759,N 22 18 11.937 E 113 55 50.472,N 22 18 11.77 E 113 55 50.534,N 22 18 11.705 E 113 55 50.327,N 22 18 11.455 E 113 55 50.42;;,None;;;,None;;false;
BUILDING_0068; HKIA Commercial Building;;15ft;;N 22 18 54.685 E 113 56 15.638,N 22 18 53.095 E 113 56 16.233,N 22 18 52.719 E 113 56 15.06,N 22 18 54.31 E 113 56 14.465,N 22 18 54.685 E 113 56 15.638;;,None;;;,None;;false;
BUILDING_0069;;;15ft;;N 22 18 04.269 E 113 56 18.518,N 22 18 04.966 E 113 56 17.486,N 22 18 04.177 E 113 56 17.169,N 22 18 04.287 E 113 56 16.732,N 22 18 03.443 E 113 56 16.435,N 22 18 03.516 E 113 56 16.177,N 22 18 01.13 E 113 56 15.264,N 22 18 01.038 E 113 56 15.502,N 22 18 01.488 E 113 56 15.72,N 22 18 01.203 E 113 56 16.355,N 22 18 04.269 E 113 56 18.518;;,None;;;,None;;false;
BUILDING_0070;;;15ft;;N 22 18 50.249 E 113 56 09.24,N 22 18 50.758 E 113 56 10.738,N 22 18 50.878 E 113 56 11.116,N 22 18 50.512 E 113 56 11.26,N 22 18 49.883 E 113 56 09.383,N 22 18 50.249 E 113 56 09.24;;,None;;;,None;;false;
BUILDING_0071; Gatehouse 2;;15ft;;N 22 18 38.71 E 113 56 11.557,N 22 18 38.588 E 113 56 11.602,N 22 18 38.641 E 113 56 11.766,N 22 18 38.389 E 113 56 11.861,N 22 18 38.341 E 113 56 11.713,N 22 18 38.215 E 113 56 11.76,N 22 18 38.088 E 113 56 11.347,N 22 18 37.954 E 113 56 10.909,N 22 18 37.902 E 113 56 10.746,N 22 18 37.837 E 113 56 10.546,N 22 18 38.395 E 113 56 10.341,N 22 18 38.461 E 113 56 10.546,N 22 18 38.51 E 113 56 10.698,N 22 18 38.607 E 113 56 11.003,N 22 18 38.541 E 113 56 11.028,N 22 18 38.71 E 113 56 11.557;;,None;;;,None;;false;
BUILDING_0072; Gatehouse 1;;15ft;;N 22 19 09.846 E 113 55 59.03,N 22 19 09.896 E 113 55 59.186,N 22 19 10.09 E 113 55 59.785,N 22 19 10.135 E 113 55 59.928,N 22 19 10.231 E 113 56 00.226,N 22 19 09.907 E 113 56 00.348,N 22 19 09.668 E 113 56 00.438,N 22 19 09.571 E 113 56 00.135,N 22 19 09.526 E 113 55 59.992,N 22 19 09.283 E 113 55 59.242,N 22 19 09.846 E 113 55 59.03;;,None;;;,None;;false;
BUILDING_0073; Coach Station;;15ft;;N 22 18 48.122 E 113 56 12.133,N 22 18 44.23 E 113 56 13.594,N 22 18 44.11 E 113 56 13.205,N 22 18 48.003 E 113 56 11.737,N 22 18 48.122 E 113 56 12.133;;,None;;;,None;;false;
BUILDING_0074;;;15ft;;N 22 18 10.979 E 113 56 17.239,N 22 18 11.145 E 113 56 17.819,N 22 18 10.295 E 113 56 18.142,N 22 18 10.108 E 113 56 17.553,N 22 18 10.979 E 113 56 17.239;;,None;;;,None;;false;
BUILDING_0075; Hong Kong Airlines Training Academy;;15ft;;N 22 18 03.737 E 113 56 11.08,N 22 18 03.744 E 113 56 11.235,N 22 18 02.546 E 113 56 12.195,N 22 18 01.311 E 113 56 12.219,N 22 17 59.781 E 113 56 11.314,N 22 17 59.788 E 113 56 11.181,N 22 18 03.737 E 113 56 11.08;;,None;;;,None;;false;
BUILDING_0076;;;15ft;;N 22 18 16.068 E 113 56 20.36,N 22 18 15.139 E 113 56 19.923,N 22 18 15.457 E 113 56 20.936,N 22 18 15.882 E 113 56 20.892,N 22 18 16.068 E 113 56 20.36;;,None;;;,None;;false;
BUILDING_0077;;;15ft;;N 22 18 07.142 E 113 56 14.679,N 22 18 07.85 E 113 56 14.958,N 22 18 07.614 E 113 56 15.792,N 22 18 07.721 E 113 56 15.82,N 22 18 07.582 E 113 56 16.394,N 22 18 07.71 E 113 56 16.429,N 22 18 07.555 E 113 56 16.991,N 22 18 07.692 E 113 56 17.011,N 22 18 07.539 E 113 56 17.773,N 22 18 06.789 E 113 56 17.587,N 22 18 06.949 E 113 56 16.811,N 22 18 06.81 E 113 56 16.765,N 22 18 06.939 E 113 56 16.22,N 22 18 06.8 E 113 56 16.191,N 22 18 06.976 E 113 56 15.661,N 22 18 06.864 E 113 56 15.629,N 22 18 07.142 E 113 56 14.679;;,None;;;,None;;false;
BUILDING_0078;;;15ft;;N 22 18 12.819 E 113 55 45.357,N 22 18 13.052 E 113 55 46.076,N 22 18 12.732 E 113 55 46.179,N 22 18 12.717 E 113 55 46.128,N 22 18 12.155 E 113 55 46.344,N 22 18 11.988 E 113 55 45.837,N 22 18 12.578 E 113 55 45.605,N 22 18 12.527 E 113 55 45.466,N 22 18 12.819 E 113 55 45.357;;,None;;;,None;;false;
BUILDING_0079;;;15ft;;N 22 18 14.431 E 113 54 38.73,N 22 18 14.019 E 113 54 38.892,N 22 18 14.05 E 113 54 38.999,N 22 18 13.764 E 113 54 39.114,N 22 18 13.913 E 113 54 39.592,N 22 18 14.225 E 113 54 39.484,N 22 18 14.256 E 113 54 39.599,N 22 18 14.68 E 113 54 39.437,N 22 18 14.431 E 113 54 38.73;;,None;;;,None;;false;
BUILDING_0080;;;15ft;;N 22 18 39.561 E 113 55 15.195,N 22 18 40.194 E 113 55 17.145,N 22 18 39.162 E 113 55 17.538,N 22 18 38.56 E 113 55 15.587,N 22 18 39.561 E 113 55 15.195;;,None;;;,None;;false;
BUILDING_0081;;;15ft;;N 22 17 45.971 E 113 54 57.089,N 22 17 45.975 E 113 54 57.954,N 22 17 45.604 E 113 54 57.959,N 22 17 45.323 E 113 54 57.962,N 22 17 45.323 E 113 54 57.097,N 22 17 45.374 E 113 54 57.097,N 22 17 45.971 E 113 54 57.089;;,None;;;,None;;false;
BUILDING_0082;;;15ft;;N 22 17 57.755 E 113 55 48.654,N 22 17 58.732 E 113 55 51.704,N 22 17 58.167 E 113 55 51.909,N 22 17 57.323 E 113 55 49.425,N 22 17 57.152 E 113 55 48.896,N 22 17 57.6 E 113 55 48.716,N 22 17 57.755 E 113 55 48.654;;,None;;;,None;;false;
BUILDING_0083;;;15ft;;N 22 17 51.427 E 113 54 39.657,N 22 17 51.575 E 113 54 40.154,N 22 17 51.01 E 113 54 40.371,N 22 17 50.915 E 113 54 40.08,N 22 17 51.158 E 113 54 39.994,N 22 17 51.094 E 113 54 39.766,N 22 17 51.427 E 113 54 39.657;;,None;;;,None;;false;
BUILDING_0084;;;15ft;;N 22 18 01.282 E 113 55 46.22,N 22 18 01.493 E 113 55 46.887,N 22 18 00.543 E 113 55 47.24,N 22 18 00.354 E 113 55 46.562,N 22 18 01.282 E 113 55 46.22;;,None;;;,None;;false;
BUILDING_0085;;;15ft;;N 22 17 59.958 E 113 55 46.722,N 22 18 00.174 E 113 55 47.388,N 22 17 59.235 E 113 55 47.742,N 22 17 59.009 E 113 55 47.075,N 22 17 59.958 E 113 55 46.722;;,None;;;,None;;false;
BUILDING_0086;;;15ft;;N 22 17 58.64 E 113 55 47.223,N 22 17 58.829 E 113 55 47.896,N 22 17 57.88 E 113 55 48.255,N 22 17 57.674 E 113 55 47.582,N 22 17 58.64 E 113 55 47.223;;,None;;;,None;;false;
BUILDING_0087;;;15ft;;N 22 18 19.253 E 113 54 17.724,N 22 18 19.455 E 113 54 18.359,N 22 18 16.826 E 113 54 19.339,N 22 18 16.61 E 113 54 18.683,N 22 18 19.253 E 113 54 17.724;;,None;;;,None;;false;
BUILDING_0088;;;15ft;;N 22 18 37.954 E 113 56 10.48,N 22 18 37.878 E 113 56 10.219,N 22 18 37.603 E 113 56 10.323,N 22 18 37.682 E 113 56 10.577,N 22 18 37.954 E 113 56 10.48;;,None;;;,None;;false;
BUILDING_0089;;;15ft;;N 22 18 37.575 E 113 56 10.437,N 22 18 37.671 E 113 56 10.738,N 22 18 37.356 E 113 56 10.853,N 22 18 37.256 E 113 56 10.553,N 22 18 37.575 E 113 56 10.437;;,None;;;,None;;false;
BUILDING_0090;;;15ft;;N 22 18 12.316 E 113 55 51.307,N 22 18 12.415 E 113 55 51.614,N 22 18 12.106 E 113 55 51.729,N 22 18 12.007 E 113 55 51.415,N 22 18 12.316 E 113 55 51.307;;,None;;;,None;;false;
BUILDING_0091;;;15ft;;N 22 18 14.959 E 113 56 06.023,N 22 18 15.029 E 113 56 06.246,N 22 18 14.211 E 113 56 06.544,N 22 18 14.141 E 113 56 06.327,N 22 18 14.959 E 113 56 06.023;;,None;;;,None;;false;
BUILDING_0092;;;15ft;;N 22 18 20.227 E 113 56 09.613,N 22 18 20.528 E 113 56 10.602,N 22 18 20.339 E 113 56 10.685,N 22 18 20.283 E 113 56 10.536,N 22 18 20.135 E 113 56 10.586,N 22 18 19.874 E 113 56 09.73,N 22 18 20.227 E 113 56 09.613;;,None;;;,None;;false;
BUILDING_0093;;;15ft;;N 22 18 19.83 E 113 56 09.761,N 22 18 19.999 E 113 56 10.344,N 22 18 19.75 E 113 56 10.43,N 22 18 19.294 E 113 56 10.248,N 22 18 19.208 E 113 56 09.972,N 22 18 19.83 E 113 56 09.761;;,None;;;,None;;false;
BUILDING_0094;;;15ft;;N 22 17 38.116 E 113 56 31.146,N 22 17 38.596 E 113 56 35.245,N 22 17 37.775 E 113 56 35.357,N 22 17 37.724 E 113 56 34.916,N 22 17 37.967 E 113 56 34.882,N 22 17 37.538 E 113 56 31.225,N 22 17 38.116 E 113 56 31.146;;,None;;;,None;;false;
BUILDING_0095;;;15ft;;N 22 17 38.562 E 113 56 35.607,N 22 17 38.875 E 113 56 38.272,N 22 17 38.358 E 113 56 38.343,N 22 17 38.246 E 113 56 37.391,N 22 17 38.021 E 113 56 37.422,N 22 17 37.842 E 113 56 35.893,N 22 17 38.067 E 113 56 35.862,N 22 17 38.045 E 113 56 35.678,N 22 17 38.562 E 113 56 35.607;;,None;;;,None;;false;
BUILDING_0096;;;15ft;;N 22 17 39.067 E 113 56 39.571,N 22 17 39.12 E 113 56 40.204,N 22 17 38.473 E 113 56 40.268,N 22 17 38.707 E 113 56 42.024,N 22 17 39.487 E 113 56 41.946,N 22 17 39.503 E 113 56 42.136,N 22 17 38.4 E 113 56 42.264,N 22 17 38.053 E 113 56 39.648,N 22 17 38.384 E 113 56 39.597,N 22 17 38.39 E 113 56 39.638,N 22 17 39.067 E 113 56 39.571;;,None;;;,None;;false;
BUILDING_0097;;;15ft;;N 22 17 39.286 E 113 56 41.536,N 22 17 39.308 E 113 56 41.8,N 22 17 38.803 E 113 56 41.85,N 22 17 38.781 E 113 56 41.586,N 22 17 39.286 E 113 56 41.536;;,None;;;,None;;false;
BUILDING_0098;;;15ft;;N 22 17 40.282 E 113 56 40.518,N 22 17 39.719 E 113 56 42.082,N 22 17 39.543 E 113 56 42.008,N 22 17 40.106 E 113 56 40.443,N 22 17 40.282 E 113 56 40.518;;,None;;;,None;;false;
BUILDING_0099;;;15ft;;N 22 17 39.697 E 113 56 42.917,N 22 17 40.11 E 113 56 42.866,N 22 17 40.327 E 113 56 44.911,N 22 17 39.914 E 113 56 44.962,N 22 17 39.697 E 113 56 42.917;;,None;;;,None;;false;
BUILDING_0100;;;15ft;;N 22 17 39.272 E 113 56 43.313,N 22 17 39.358 E 113 56 44.115,N 22 17 39.013 E 113 56 44.157,N 22 17 38.928 E 113 56 43.355,N 22 17 39.272 E 113 56 43.313;;,None;;;,None;;false;
BUILDING_0101;;;15ft;;N 22 18 27.492 E 113 55 19.308,N 22 18 27.732 E 113 55 20.023,N 22 18 27.612 E 113 55 20.074,N 22 18 27.547 E 113 55 19.895,N 22 18 27.422 E 113 55 19.944,N 22 18 27.227 E 113 55 19.406,N 22 18 27.492 E 113 55 19.308;;,None;;;,None;;false;
BUILDING_0102;BLOCK F;;15ft;;N 22 19 12.779 E 113 56 20.741,N 22 19 11.703 E 113 56 21.008,N 22 19 12.161 E 113 56 23.168,N 22 19 13.238 E 113 56 22.901,N 22 19 12.779 E 113 56 20.741;;,None;;;,None;;false;
BUILDING_0103;BLOCK E;;15ft;;N 22 19 14.202 E 113 56 20.391,N 22 19 13.033 E 113 56 20.686,N 22 19 13.499 E 113 56 22.839,N 22 19 14.667 E 113 56 22.544,N 22 19 14.202 E 113 56 20.391;;,None;;;,None;;false;
BUILDING_0104;BLOCK B;;15ft;;N 22 19 14.714 E 113 56 22.753,N 22 19 13.529 E 113 56 23.065,N 22 19 14.019 E 113 56 25.239,N 22 19 15.203 E 113 56 24.927,N 22 19 14.714 E 113 56 22.753;;,None;;;,None;;false;
BUILDING_0105;BLOCK D;;15ft;;N 22 19 15.814 E 113 56 20.7,N 22 19 14.634 E 113 56 20.997,N 22 19 14.962 E 113 56 22.524,N 22 19 16.142 E 113 56 22.227,N 22 19 15.814 E 113 56 20.7;;,None;;;,None;;false;
BUILDING_0106;BLOCK C;;15ft;;N 22 19 16.178 E 113 56 22.408,N 22 19 15.003 E 113 56 22.711,N 22 19 15.478 E 113 56 24.856,N 22 19 16.652 E 113 56 24.553,N 22 19 16.178 E 113 56 22.408;;,None;;;,None;;false;
HANGAR_0001;;;15ft;;N 22 17 46.143 E 113 54 44.984,N 22 17 45.61 E 113 54 45.191,N 22 17 44.798 E 113 54 45.505,N 22 17 45.334 E 113 54 47.119,N 22 17 46.678 E 113 54 46.598,N 22 17 46.143 E 113 54 44.984;;,None;;;,None;;false;
HANGAR_0002;;;15ft;;N 22 18 14.071 E 113 54 03.068,N 22 18 14.017 E 113 54 03.089,N 22 18 13.873 E 113 54 03.143,N 22 18 13.144 E 113 54 03.417,N 22 18 13.104 E 113 54 03.296,N 22 18 11.592 E 113 54 03.876,N 22 18 13.436 E 113 54 09.694,N 22 18 14.665 E 113 54 09.235,N 22 18 14.696 E 113 54 09.354,N 22 18 14.826 E 113 54 09.303,N 22 18 14.979 E 113 54 09.244,N 22 18 15.959 E 113 54 08.866,N 22 18 14.071 E 113 54 03.068;;,None;;;,None;;false;
HANGAR_0003;;;15ft;;N 22 17 49.872 E 113 54 48.084,N 22 17 49.781 E 113 54 48.279,N 22 17 49.395 E 113 54 49.103,N 22 17 49.158 E 113 54 49.61,N 22 17 46.612 E 113 54 48.307,N 22 17 47.317 E 113 54 46.771,N 22 17 49.872 E 113 54 48.084;;,None;;;,None;;false;
HANGAR_0004;;;15ft;;N 22 18 16.559 E 113 54 09.329,N 22 18 18.393 E 113 54 14.991,N 22 18 15.485 E 113 54 16.023,N 22 18 13.675 E 113 54 10.473,N 22 18 13.635 E 113 54 10.353,N 22 18 15.371 E 113 54 09.746,N 22 18 15.543 E 113 54 09.685,N 22 18 16.559 E 113 54 09.329;;,None;;;,None;;false;
HANGAR_0005;;;15ft;;N 22 17 52.824 E 113 54 47.15,N 22 17 53.366 E 113 54 48.848,N 22 17 50.725 E 113 54 49.8,N 22 17 50.603 E 113 54 49.492,N 22 17 49.395 E 113 54 49.103,N 22 17 49.781 E 113 54 48.279,N 22 17 50.034 E 113 54 48.38,N 22 17 50.157 E 113 54 48.102,N 22 17 52.824 E 113 54 47.15;;,None;;;,None;;false;
HANGAR_0006;;;15ft;;N 22 17 50.663 E 113 54 34.127,N 22 17 45.911 E 113 54 35.874,N 22 17 46.722 E 113 54 38.082,N 22 17 47.004 E 113 54 37.988,N 22 17 47.076 E 113 54 38.17,N 22 17 47.61 E 113 54 37.965,N 22 17 47.799 E 113 54 37.688,N 22 17 48.087 E 113 54 37.577,N 22 17 48.133 E 113 54 37.671,N 22 17 48.79 E 113 54 37.322,N 22 17 50.185 E 113 54 36.335,N 22 17 50.021 E 113 54 35.791,N 22 17 51.073 E 113 54 35.37,N 22 17 50.663 E 113 54 34.127;;,None;;;,None;;false;
TERMINAL_0001; Main Terminal Building;;15ft;;N 22 17 59.352 E 113 55 39.362,N 22 17 50.956 E 113 55 42.409,N 22 17 53.002 E 113 55 48.995,N 22 18 01.465 E 113 55 45.912,N 22 17 59.352 E 113 55 39.362;;,None;;;,None;;false;
TERMINAL_0002; Express Centre;;15ft;;N 22 17 57.484 E 113 55 36.057,N 22 17 51.873 E 113 55 38.182,N 22 17 51.73 E 113 55 37.602,N 22 17 49.8 E 113 55 38.298,N 22 17 50.784 E 113 55 41.298,N 22 17 52.765 E 113 55 40.582,N 22 17 52.66 E 113 55 40.229,N 22 17 58.883 E 113 55 37.92,N 22 17 58.204 E 113 55 35.76,N 22 17 57.484 E 113 55 36.057;;,None;;;,None;;false;
TERMINAL_0003; North Satellite Concourse;;15ft;;N 22 19 04.54 E 113 55 49.382,N 22 19 03.609 E 113 55 46.571,N 22 19 03.423 E 113 55 46.638,N 22 19 03.275 E 113 55 46.697,N 22 19 02.1 E 113 55 47.165,N 22 19 02.041 E 113 55 47.187,N 22 19 00.729 E 113 55 47.68,N 22 18 59.962 E 113 55 47.977,N 22 19 00.042 E 113 55 48.219,N 22 19 00.09 E 113 55 48.366,N 22 19 00.148 E 113 55 48.542,N 22 19 00.398 E 113 55 49.296,N 22 19 00.43 E 113 55 49.391,N 22 19 00.546 E 113 55 49.743,N 22 19 00.607 E 113 55 49.937,N 22 19 00.754 E 113 55 50.37,N 22 19 00.893 E 113 55 50.79,N 22 19 00.976 E 113 55 50.758,N 22 19 01.143 E 113 55 50.694,N 22 19 02.036 E 113 55 50.348,N 22 19 02.295 E 113 55 50.248,N 22 19 03.285 E 113 55 49.865,N 22 19 03.597 E 113 55 49.745,N 22 19 04.54 E 113 55 49.382;;,None;;;,None;;false;
TERMINAL_0004; Midfield Concourse;;15ft;;N 22 18 46.962 E 113 54 59.238,N 22 18 46.955 E 113 54 59.612,N 22 18 46.917 E 113 54 59.943,N 22 18 46.83 E 113 55 00.436,N 22 18 46.672 E 113 55 00.934,N 22 18 45.806 E 113 55 01.248,N 22 18 43.921 E 113 55 01.939,N 22 18 41.718 E 113 55 02.747,N 22 18 39.51 E 113 55 03.556,N 22 18 38.004 E 113 55 04.108,N 22 18 37.733 E 113 55 04.207,N 22 18 37.473 E 113 55 04.303,N 22 18 37.197 E 113 55 04.404,N 22 18 37.085 E 113 55 04.445,N 22 18 36.962 E 113 55 04.644,N 22 18 36.972 E 113 55 04.899,N 22 18 36.846 E 113 55 05.269,N 22 18 34.873 E 113 55 05.986,N 22 18 34.697 E 113 55 05.784,N 22 18 34.565 E 113 55 05.61,N 22 18 34.41 E 113 55 05.496,N 22 18 33.595 E 113 55 05.799,N 22 18 32.124 E 113 55 06.346,N 22 18 29.929 E 113 55 07.162,N 22 18 27.71 E 113 55 07.987,N 22 18 26.272 E 113 55 08.522,N 22 18 25.502 E 113 55 08.808,N 22 18 25.896 E 113 55 07.024,N 22 18 26.205 E 113 55 06.908,N 22 18 28.383 E 113 55 06.087,N 22 18 30.529 E 113 55 05.278,N 22 18 32.744 E 113 55 04.443,N 22 18 33.613 E 113 55 04.115,N 22 18 33.806 E 113 55 03.865,N 22 18 33.874 E 113 55 03.597,N 22 18 33.85 E 113 55 03.175,N 22 18 33.8 E 113 55 02.544,N 22 18 34.233 E 113 55 02.35,N 22 18 34.364 E 113 55 02.532,N 22 18 35.683 E 113 55 02.086,N 22 18 35.659 E 113 55 01.813,N 22 18 36.023 E 113 55 01.712,N 22 18 36.234 E 113 55 01.986,N 22 18 36.452 E 113 55 02.445,N 22 18 36.674 E 113 55 02.73,N 22 18 37.039 E 113 55 02.882,N 22 18 39.099 E 113 55 02.123,N 22 18 41.287 E 113 55 01.317,N 22 18 43.503 E 113 55 00.5,N 22 18 45.316 E 113 54 59.832,N 22 18 46.462 E 113 54 59.409,N 22 18 46.962 E 113 54 59.238;;,None;;;,None;;false;
TERMINAL_0005; Terminal 1;;15ft;;N 22 18 54.311 E 113 55 59.284,N 22 18 54.935 E 113 55 59.554,N 22 18 55.242 E 113 55 58.902,N 22 18 56.092 E 113 55 59.356,N 22 18 57.29 E 113 55 59.996,N 22 18 57.768 E 113 56 00.251,N 22 18 58.989 E 113 56 00.903,N 22 18 58.675 E 113 56 01.537,N 22 18 59.35 E 113 56 01.284,N 22 18 59.49 E 113 56 01.231,N 22 19 02.286 E 113 56 00.181,N 22 19 02.59 E 113 56 00.066,N 22 19 04.51 E 113 55 59.345,N 22 19 04.703 E 113 55 59.273,N 22 19 05.395 E 113 55 59.013,N 22 19 05.426 E 113 55 59.116,N 22 19 05.532 E 113 55 59.461,N 22 19 05.6 E 113 55 59.684,N 22 19 05.622 E 113 55 59.755,N 22 19 05.667 E 113 55 59.903,N 22 19 05.766 E 113 56 00.228,N 22 19 05.801 E 113 56 00.341,N 22 19 05.92 E 113 56 00.731,N 22 19 03.863 E 113 56 01.473,N 22 19 01.276 E 113 56 02.424,N 22 19 02.779 E 113 56 07.171,N 22 19 01.66 E 113 56 07.594,N 22 19 01.755 E 113 56 07.901,N 22 19 01.855 E 113 56 08.213,N 22 18 59.008 E 113 56 09.269,N 22 18 56.807 E 113 56 10.074,N 22 18 54.728 E 113 56 10.827,N 22 18 51.882 E 113 56 11.863,N 22 18 51.81 E 113 56 11.642,N 22 18 51.441 E 113 56 10.512,N 22 18 50.176 E 113 56 06.531,N 22 18 44.708 E 113 56 08.569,N 22 18 44.658 E 113 56 08.417,N 22 18 44.61 E 113 56 08.268,N 22 18 44.452 E 113 56 07.788,N 22 18 44.388 E 113 56 07.593,N 22 18 44.207 E 113 56 07.038,N 22 18 44.173 E 113 56 06.935,N 22 18 44.504 E 113 56 06.812,N 22 18 44.766 E 113 56 06.715,N 22 18 46.629 E 113 56 06.023,N 22 18 46.724 E 113 56 05.988,N 22 18 46.833 E 113 56 05.947,N 22 18 47.012 E 113 56 05.881,N 22 18 48.941 E 113 56 05.165,N 22 18 49.235 E 113 56 05.056,N 22 18 50.755 E 113 56 04.491,N 22 18 50.163 E 113 56 04.169,N 22 18 50.428 E 113 56 03.609,N 22 18 50.589 E 113 56 03.268,N 22 18 51.075 E 113 56 02.241,N 22 18 51.241 E 113 56 01.891,N 22 18 51.722 E 113 56 00.874,N 22 18 51.793 E 113 56 00.723,N 22 18 51.903 E 113 56 00.491,N 22 18 52.103 E 113 56 00.068,N 22 18 52.72 E 113 56 00.448,N 22 18 53.021 E 113 55 59.82,N 22 18 52.764 E 113 55 59.018,N 22 18 52.727 E 113 55 58.904,N 22 18 52.524 E 113 55 58.271,N 22 18 51.718 E 113 55 55.759,N 22 18 51.661 E 113 55 55.582,N 22 18 50.953 E 113 55 53.374,N 22 18 50.901 E 113 55 53.211,N 22 18 50.189 E 113 55 50.993,N 22 18 50.147 E 113 55 50.859,N 22 18 49.136 E 113 55 47.711,N 22 18 49.106 E 113 55 47.617,N 22 18 48.376 E 113 55 45.341,N 22 18 48.321 E 113 55 45.168,N 22 18 47.602 E 113 55 42.927,N 22 18 47.564 E 113 55 42.81,N 22 18 46.856 E 113 55 40.601,N 22 18 46.823 E 113 55 40.501,N 22 18 46.591 E 113 55 39.776,N 22 18 42.269 E 113 55 37.524,N 22 18 42.206 E 113 55 37.492,N 22 18 40.036 E 113 55 36.361,N 22 18 39.959 E 113 55 36.321,N 22 18 37.858 E 113 55 35.226,N 22 18 37.707 E 113 55 35.148,N 22 18 35.571 E 113 55 34.035,N 22 18 35.476 E 113 55 33.986,N 22 18 34.65 E 113 55 33.555,N 22 18 34.53 E 113 55 33.204,N 22 18 34.456 E 113 55 32.986,N 22 18 34.325 E 113 55 32.605,N 22 18 34.237 E 113 55 32.349,N 22 18 33.899 E 113 55 31.362,N 22 18 34.648 E 113 55 31.744,N 22 18 34.753 E 113 55 31.797,N 22 18 36.893 E 113 55 32.89,N 22 18 36.985 E 113 55 32.937,N 22 18 39.108 E 113 55 34.021,N 22 18 39.226 E 113 55 34.081,N 22 18 41.361 E 113 55 35.172,N 22 18 41.421 E 113 55 35.202,N 22 18 43.607 E 113 55 36.318,N 22 18 43.685 E 113 55 36.358,N 22 18 44.34 E 113 55 36.692,N 22 18 44.49 E 113 55 36.794,N 22 18 44.581 E 113 55 36.913,N 22 18 44.557 E 113 55 36.835,N 22 18 47.783 E 113 55 35.665,N 22 18 48.806 E 113 55 33.406,N 22 18 48.942 E 113 55 33.105,N 22 18 49.855 E 113 55 31.091,N 22 18 49.976 E 113 55 30.822,N 22 18 50.939 E 113 55 28.698,N 22 18 51.058 E 113 55 28.433,N 22 18 51.894 E 113 55 26.588,N 22 18 52.003 E 113 55 26.347,N 22 18 52.903 E 113 55 24.361,N 22 18 53.045 E 113 55 24.048,N 22 18 53.338 E 113 55 23.4,N 22 18 53.671 E 113 55 22.665,N 22 18 53.9 E 113 55 23.376,N 22 18 54.28 E 113 55 24.554,N 22 18 54.393 E 113 55 24.905,N 22 18 53.534 E 113 55 26.806,N 22 18 53.415 E 113 55 27.07,N 22 18 52.335 E 113 55 29.459,N 22 18 52.196 E 113 55 29.767,N 22 18 51.033 E 113 55 32.343,N 22 18 50.907 E 113 55 32.62,N 22 18 49.804 E 113 55 35.062,N 22 18 49.685 E 113 55 35.325,N 22 18 47.889 E 113 55 39.301,N 22 18 48.074 E 113 55 39.941,N 22 18 48.127 E 113 55 40.102,N 22 18 48.867 E 113 55 42.346,N 22 18 48.903 E 113 55 42.456,N 22 18 49.625 E 113 55 44.703,N 22 18 49.664 E 113 55 44.825,N 22 18 50.388 E 113 55 47.079,N 22 18 50.429 E 113 55 47.206,N 22 18 51.236 E 113 55 49.716,N 22 18 51.293 E 113 55 49.894,N 22 18 52.017 E 113 55 52.148,N 22 18 52.058 E 113 55 52.273,N 22 18 52.771 E 113 55 54.492,N 22 18 52.808 E 113 55 54.609,N 22 18 52.855 E 113 55 54.753,N 22 18 52.899 E 113 55 54.891,N 22 18 53.079 E 113 55 55.449,N 22 18 53.529 E 113 55 56.85,N 22 18 53.581 E 113 55 57.012,N 22 18 54.023 E 113 55 58.389,N 22 18 54.052 E 113 55 58.479,N 22 18 54.311 E 113 55 59.284;;,None;;;,None;;false;
